%!PS-Adobe-2.0 EPSF-2.0
%%Title: source-temp/figures/testbed.dia
%%Creator: Dia v0.97.2
%%CreationDate: Wed Oct 17 10:56:35 2012
%%For: lauril
%%Orientation: Portrait
%%Magnification: 1.0000
%%BoundingBox: 0 0 967 658
%%BeginSetup
%%EndSetup
%%EndComments
%%BeginProlog
[ /.notdef /.notdef /.notdef /.notdef /.notdef /.notdef /.notdef /.notdef /.notdef /.notdef
/.notdef /.notdef /.notdef /.notdef /.notdef /.notdef /.notdef /.notdef /.notdef /.notdef
/.notdef /.notdef /.notdef /.notdef /.notdef /.notdef /.notdef /.notdef /.notdef /.notdef
/.notdef /.notdef /space /exclam /quotedbl /numbersign /dollar /percent /ampersand /quoteright
/parenleft /parenright /asterisk /plus /comma /hyphen /period /slash /zero /one
/two /three /four /five /six /seven /eight /nine /colon /semicolon
/less /equal /greater /question /at /A /B /C /D /E
/F /G /H /I /J /K /L /M /N /O
/P /Q /R /S /T /U /V /W /X /Y
/Z /bracketleft /backslash /bracketright /asciicircum /underscore /quoteleft /a /b /c
/d /e /f /g /h /i /j /k /l /m
/n /o /p /q /r /s /t /u /v /w
/x /y /z /braceleft /bar /braceright /asciitilde /.notdef /.notdef /.notdef
/.notdef /.notdef /.notdef /.notdef /.notdef /.notdef /.notdef /.notdef /.notdef /.notdef
/.notdef /.notdef /.notdef /.notdef /.notdef /.notdef /.notdef /.notdef /.notdef /.notdef
/.notdef /.notdef /.notdef /.notdef /.notdef /.notdef /.notdef /.notdef /.notdef /.notdef
/space /exclamdown /cent /sterling /currency /yen /brokenbar /section /dieresis /copyright
/ordfeminine /guillemotleft /logicalnot /hyphen /registered /macron /degree /plusminus /twosuperior /threesuperior
/acute /mu /paragraph /periodcentered /cedilla /onesuperior /ordmasculine /guillemotright /onequarter /onehalf
/threequarters /questiondown /Agrave /Aacute /Acircumflex /Atilde /Adieresis /Aring /AE /Ccedilla
/Egrave /Eacute /Ecircumflex /Edieresis /Igrave /Iacute /Icircumflex /Idieresis /Eth /Ntilde
/Ograve /Oacute /Ocircumflex /Otilde /Odieresis /multiply /Oslash /Ugrave /Uacute /Ucircumflex
/Udieresis /Yacute /Thorn /germandbls /agrave /aacute /acircumflex /atilde /adieresis /aring
/ae /ccedilla /egrave /eacute /ecircumflex /edieresis /igrave /iacute /icircumflex /idieresis
/eth /ntilde /ograve /oacute /ocircumflex /otilde /odieresis /divide /oslash /ugrave
/uacute /ucircumflex /udieresis /yacute /thorn /ydieresis] /isolatin1encoding exch def
/cp {closepath} bind def
/c {curveto} bind def
/f {fill} bind def
/a {arc} bind def
/ef {eofill} bind def
/ex {exch} bind def
/gr {grestore} bind def
/gs {gsave} bind def
/sa {save} bind def
/rs {restore} bind def
/l {lineto} bind def
/m {moveto} bind def
/rm {rmoveto} bind def
/n {newpath} bind def
/s {stroke} bind def
/sh {show} bind def
/slc {setlinecap} bind def
/slj {setlinejoin} bind def
/slw {setlinewidth} bind def
/srgb {setrgbcolor} bind def
/rot {rotate} bind def
/sc {scale} bind def
/sd {setdash} bind def
/ff {findfont} bind def
/sf {setfont} bind def
/scf {scalefont} bind def
/sw {stringwidth pop} bind def
/tr {translate} bind def

/ellipsedict 8 dict def
ellipsedict /mtrx matrix put
/ellipse
{ ellipsedict begin
   /endangle exch def
   /startangle exch def
   /yrad exch def
   /xrad exch def
   /y exch def
   /x exch def   /savematrix mtrx currentmatrix def
   x y tr xrad yrad sc
   0 0 1 startangle endangle arc
   savematrix setmatrix
   end
} def

/mergeprocs {
dup length
3 -1 roll
dup
length
dup
5 1 roll
3 -1 roll
add
array cvx
dup
3 -1 roll
0 exch
putinterval
dup
4 2 roll
putinterval
} bind def
/dpi_x 300 def
/dpi_y 300 def
/conicto {
    /to_y exch def
    /to_x exch def
    /conic_cntrl_y exch def
    /conic_cntrl_x exch def
    currentpoint
    /p0_y exch def
    /p0_x exch def
    /p1_x p0_x conic_cntrl_x p0_x sub 2 3 div mul add def
    /p1_y p0_y conic_cntrl_y p0_y sub 2 3 div mul add def
    /p2_x p1_x to_x p0_x sub 1 3 div mul add def
    /p2_y p1_y to_y p0_y sub 1 3 div mul add def
    p1_x p1_y p2_x p2_y to_x to_y curveto
} bind def
/start_ol { gsave 1.1 dpi_x div dup scale} bind def
/end_ol { closepath fill grestore } bind def
28.346000 -28.346000 scale
-4.950000 -28.150000 translate
%%EndProlog


0.100000 slw
[] 0 sd
[] 0 sd
1 slj
0.901961 0.901961 0.980392 srgb
n 5.000000 5.000000 m 5.000000 21.000000 l 15.000000 21.000000 l 15.000000 5.000000 l f
0.000000 0.000000 0.000000 srgb
n 5.000000 5.000000 m 5.000000 21.000000 l 15.000000 21.000000 l 15.000000 5.000000 l cp s
0.100000 slw
[] 0 sd
[] 0 sd
0 slj
1.000000 1.000000 1.000000 srgb
n 6.000000 7.000000 m 6.000000 16.000000 l 14.000000 16.000000 l 14.000000 7.000000 l f
0.000000 0.000000 0.000000 srgb
n 6.000000 7.000000 m 6.000000 16.000000 l 14.000000 16.000000 l 14.000000 7.000000 l cp s
gsave 7.507500 8.000000 translate 0.035278 -0.035278 scale
start_ol
2688 1646 moveto
2688 0 lineto
2240 0 lineto
2240 1632 lineto
2240 2001 2093 2184 conicto
1947 2368 1654 2368 conicto
1302 2368 1099 2146 conicto
896 1925 896 1542 conicto
896 0 lineto
448 0 lineto
448 2688 lineto
896 2688 lineto
896 2304 lineto
1053 2529 1266 2640 conicto
1479 2752 1757 2752 conicto
2217 2752 2452 2471 conicto
2688 2191 2688 1646 conicto
end_ol grestore 
gsave 7.912114 8.000000 translate 0.035278 -0.035278 scale
start_ol
2112 2560 moveto
2112 2176 lineto
1932 2272 1738 2320 conicto
1544 2368 1336 2368 conicto
1020 2368 862 2269 conicto
704 2170 704 1972 conicto
704 1821 814 1735 conicto
925 1649 1260 1571 conicto
1403 1538 lineto
1857 1438 2048 1255 conicto
2240 1072 2240 744 conicto
2240 371 1954 153 conicto
1668 -64 1167 -64 conicto
958 -64 732 -16 conicto
506 32 256 128 conicto
256 576 lineto
491 448 719 384 conicto
947 320 1170 320 conicto
1470 320 1631 425 conicto
1792 531 1792 722 conicto
1792 900 1678 994 conicto
1564 1089 1177 1177 conicto
1032 1212 lineto
621 1298 438 1476 conicto
256 1654 256 1964 conicto
256 2341 520 2546 conicto
784 2752 1269 2752 conicto
1509 2752 1721 2704 conicto
1933 2656 2112 2560 conicto
end_ol grestore 
gsave 8.244298 8.000000 translate 0.035278 -0.035278 scale
start_ol
256 1536 moveto
1536 1536 lineto
1536 1152 lineto
256 1152 lineto
256 1536 lineto
end_ol grestore 
gsave 8.474081 8.000000 translate 0.035278 -0.035278 scale
start_ol
1897 1936 moveto
2269 1862 2478 1627 conicto
2688 1392 2688 1046 conicto
2688 516 2331 226 conicto
1975 -64 1319 -64 conicto
1099 -64 865 -16 conicto
632 32 384 128 conicto
384 576 lineto
576 449 805 384 conicto
1035 320 1285 320 conicto
1720 320 1948 504 conicto
2176 688 2176 1039 conicto
2176 1363 1967 1545 conicto
1759 1728 1388 1728 conicto
1024 1728 lineto
1024 2112 lineto
1405 2112 lineto
1717 2112 1882 2250 conicto
2048 2388 2048 2648 conicto
2048 2915 1877 3057 conicto
1706 3200 1388 3200 conicto
1200 3200 985 3153 conicto
770 3107 512 3008 conicto
512 3456 lineto
773 3520 1001 3552 conicto
1229 3584 1431 3584 conicto
1952 3584 2256 3343 conicto
2560 3102 2560 2692 conicto
2560 2406 2387 2209 conicto
2215 2012 1897 1936 conicto
end_ol grestore 
gsave 8.881200 8.000000 translate 0.035278 -0.035278 scale
start_ol
end_ol grestore 
gsave 9.083507 8.000000 translate 0.035278 -0.035278 scale
start_ol
2624 3392 moveto
2624 2944 lineto
2352 3073 2111 3136 conicto
1870 3200 1645 3200 conicto
1255 3200 1043 3052 conicto
832 2904 832 2631 conicto
832 2402 969 2285 conicto
1107 2169 1491 2097 conicto
1773 2039 lineto
2308 1937 2562 1678 conicto
2816 1420 2816 986 conicto
2816 469 2468 202 conicto
2121 -64 1450 -64 conicto
1197 -64 911 0 conicto
626 65 320 192 conicto
320 704 lineto
613 513 893 416 conicto
1174 320 1445 320 conicto
1857 320 2080 485 conicto
2304 650 2304 955 conicto
2304 1221 2148 1371 conicto
1992 1522 1636 1597 conicto
1352 1652 lineto
807 1756 563 1978 conicto
320 2201 320 2597 conicto
320 3056 654 3320 conicto
989 3584 1576 3584 conicto
1828 3584 2089 3536 conicto
2351 3488 2624 3392 conicto
end_ol grestore 
gsave 9.490626 8.000000 translate 0.035278 -0.035278 scale
start_ol
448 2688 moveto
896 2688 lineto
896 0 lineto
448 0 lineto
448 2688 lineto
448 3712 moveto
896 3712 lineto
896 3136 lineto
448 3136 lineto
448 3712 lineto
end_ol grestore 
gsave 9.667955 8.000000 translate 0.035278 -0.035278 scale
start_ol
2549 2204 moveto
2714 2485 2942 2618 conicto
3171 2752 3482 2752 conicto
3899 2752 4125 2464 conicto
4352 2177 4352 1646 conicto
4352 0 lineto
3904 0 lineto
3904 1632 lineto
3904 2006 3769 2187 conicto
3634 2368 3356 2368 conicto
3017 2368 2820 2146 conicto
2624 1925 2624 1542 conicto
2624 0 lineto
2176 0 lineto
2176 1632 lineto
2176 2008 2041 2188 conicto
1906 2368 1624 2368 conicto
1289 2368 1092 2145 conicto
896 1922 896 1542 conicto
896 0 lineto
448 0 lineto
448 2688 lineto
896 2688 lineto
896 2304 lineto
1046 2534 1255 2643 conicto
1465 2752 1753 2752 conicto
2044 2752 2247 2611 conicto
2451 2471 2549 2204 conicto
end_ol grestore 
gsave 10.289867 8.000000 translate 0.035278 -0.035278 scale
start_ol
448 1040 moveto
448 2688 lineto
896 2688 lineto
896 1057 lineto
896 689 1042 504 conicto
1188 320 1481 320 conicto
1832 320 2036 541 conicto
2240 763 2240 1145 conicto
2240 2688 lineto
2688 2688 lineto
2688 0 lineto
2240 0 lineto
2240 384 lineto
2081 157 1870 46 conicto
1660 -64 1382 -64 conicto
923 -64 685 217 conicto
448 499 448 1040 conicto
1554 2752 moveto
1554 2752 lineto
end_ol grestore 
gsave 10.694481 8.000000 translate 0.035278 -0.035278 scale
start_ol
448 3712 moveto
896 3712 lineto
896 0 lineto
448 0 lineto
448 3712 lineto
end_ol grestore 
gsave 10.871809 8.000000 translate 0.035278 -0.035278 scale
start_ol
1622 1344 moveto
1104 1344 904 1225 conicto
704 1106 704 818 conicto
704 589 854 454 conicto
1004 320 1262 320 conicto
1618 320 1833 572 conicto
2048 825 2048 1244 conicto
2048 1344 lineto
1622 1344 lineto
2496 1513 moveto
2496 0 lineto
2048 0 lineto
2048 384 lineto
1900 154 1679 45 conicto
1458 -64 1138 -64 conicto
733 -64 494 162 conicto
256 389 256 769 conicto
256 1213 555 1438 conicto
854 1664 1448 1664 conicto
2048 1664 lineto
2048 1712 lineto
2048 2025 1851 2196 conicto
1655 2368 1300 2368 conicto
1074 2368 860 2320 conicto
646 2272 448 2176 conicto
448 2560 lineto
687 2656 912 2704 conicto
1138 2752 1351 2752 conicto
1927 2752 2211 2444 conicto
2496 2137 2496 1513 conicto
end_ol grestore 
gsave 11.263938 8.000000 translate 0.035278 -0.035278 scale
start_ol
896 3456 moveto
896 2688 lineto
1792 2688 lineto
1792 2368 lineto
896 2368 lineto
896 902 lineto
896 572 984 478 conicto
1073 384 1345 384 conicto
1792 384 lineto
1792 0 lineto
1345 0 lineto
836 0 642 194 conicto
448 389 448 902 conicto
448 2368 lineto
128 2368 lineto
128 2688 lineto
448 2688 lineto
448 3456 lineto
896 3456 lineto
end_ol grestore 
gsave 11.513705 8.000000 translate 0.035278 -0.035278 scale
start_ol
448 2688 moveto
896 2688 lineto
896 0 lineto
448 0 lineto
448 2688 lineto
448 3712 moveto
896 3712 lineto
896 3136 lineto
448 3136 lineto
448 3712 lineto
end_ol grestore 
gsave 11.691034 8.000000 translate 0.035278 -0.035278 scale
start_ol
1473 2368 moveto
1117 2368 910 2094 conicto
704 1820 704 1344 conicto
704 868 909 594 conicto
1115 320 1473 320 conicto
1827 320 2033 595 conicto
2240 870 2240 1344 conicto
2240 1816 2033 2092 conicto
1827 2368 1473 2368 conicto
1472 2752 moveto
2040 2752 2364 2378 conicto
2688 2005 2688 1344 conicto
2688 685 2364 310 conicto
2040 -64 1472 -64 conicto
902 -64 579 310 conicto
256 685 256 1344 conicto
256 2005 579 2378 conicto
902 2752 1472 2752 conicto
end_ol grestore 
gsave 12.083163 8.000000 translate 0.035278 -0.035278 scale
start_ol
2688 1646 moveto
2688 0 lineto
2240 0 lineto
2240 1632 lineto
2240 2001 2093 2184 conicto
1947 2368 1654 2368 conicto
1302 2368 1099 2146 conicto
896 1925 896 1542 conicto
896 0 lineto
448 0 lineto
448 2688 lineto
896 2688 lineto
896 2304 lineto
1053 2529 1266 2640 conicto
1479 2752 1757 2752 conicto
2217 2752 2452 2471 conicto
2688 2191 2688 1646 conicto
end_ol grestore 
gsave 9.271250 6.221250 translate 0.035278 -0.035278 scale
start_ol
448 3520 moveto
960 3520 lineto
960 2112 lineto
2624 2112 lineto
2624 3520 lineto
3136 3520 lineto
3136 0 lineto
2624 0 lineto
2624 1728 lineto
960 1728 lineto
960 0 lineto
448 0 lineto
448 3520 lineto
end_ol grestore 
gsave 9.753296 6.221250 translate 0.035278 -0.035278 scale
start_ol
1473 2368 moveto
1117 2368 910 2094 conicto
704 1820 704 1344 conicto
704 868 909 594 conicto
1115 320 1473 320 conicto
1827 320 2033 595 conicto
2240 870 2240 1344 conicto
2240 1816 2033 2092 conicto
1827 2368 1473 2368 conicto
1472 2752 moveto
2040 2752 2364 2378 conicto
2688 2005 2688 1344 conicto
2688 685 2364 310 conicto
2040 -64 1472 -64 conicto
902 -64 579 310 conicto
256 685 256 1344 conicto
256 2005 579 2378 conicto
902 2752 1472 2752 conicto
end_ol grestore 
gsave 10.145425 6.221250 translate 0.035278 -0.035278 scale
start_ol
2112 2560 moveto
2112 2176 lineto
1932 2272 1738 2320 conicto
1544 2368 1336 2368 conicto
1020 2368 862 2269 conicto
704 2170 704 1972 conicto
704 1821 814 1735 conicto
925 1649 1260 1571 conicto
1403 1538 lineto
1857 1438 2048 1255 conicto
2240 1072 2240 744 conicto
2240 371 1954 153 conicto
1668 -64 1167 -64 conicto
958 -64 732 -16 conicto
506 32 256 128 conicto
256 576 lineto
491 448 719 384 conicto
947 320 1170 320 conicto
1470 320 1631 425 conicto
1792 531 1792 722 conicto
1792 900 1678 994 conicto
1564 1089 1177 1177 conicto
1032 1212 lineto
621 1298 438 1476 conicto
256 1654 256 1964 conicto
256 2341 520 2546 conicto
784 2752 1269 2752 conicto
1509 2752 1721 2704 conicto
1933 2656 2112 2560 conicto
end_ol grestore 
gsave 10.477609 6.221250 translate 0.035278 -0.035278 scale
start_ol
896 3456 moveto
896 2688 lineto
1792 2688 lineto
1792 2368 lineto
896 2368 lineto
896 902 lineto
896 572 984 478 conicto
1073 384 1345 384 conicto
1792 384 lineto
1792 0 lineto
1345 0 lineto
836 0 642 194 conicto
448 389 448 902 conicto
448 2368 lineto
128 2368 lineto
128 2688 lineto
448 2688 lineto
448 3456 lineto
896 3456 lineto
end_ol grestore 
0.100000 slw
[] 0 sd
[] 0 sd
0 slj
1.000000 1.000000 1.000000 srgb
n 8.000000 10.000000 m 8.000000 12.000000 l 12.000000 12.000000 l 12.000000 10.000000 l f
0.000000 0.000000 0.000000 srgb
n 8.000000 10.000000 m 8.000000 12.000000 l 12.000000 12.000000 l 12.000000 10.000000 l cp s
gsave 9.162500 11.221250 translate 0.035278 -0.035278 scale
start_ol
448 3520 moveto
1131 3520 lineto
2624 575 lineto
2624 3520 lineto
3136 3520 lineto
3136 0 lineto
2453 0 lineto
960 2945 lineto
960 0 lineto
448 0 lineto
448 3520 lineto
end_ol grestore 
gsave 9.642049 11.221250 translate 0.035278 -0.035278 scale
start_ol
1473 2368 moveto
1117 2368 910 2094 conicto
704 1820 704 1344 conicto
704 868 909 594 conicto
1115 320 1473 320 conicto
1827 320 2033 595 conicto
2240 870 2240 1344 conicto
2240 1816 2033 2092 conicto
1827 2368 1473 2368 conicto
1472 2752 moveto
2040 2752 2364 2378 conicto
2688 2005 2688 1344 conicto
2688 685 2364 310 conicto
2040 -64 1472 -64 conicto
902 -64 579 310 conicto
256 685 256 1344 conicto
256 2005 579 2378 conicto
902 2752 1472 2752 conicto
end_ol grestore 
gsave 10.034178 11.221250 translate 0.035278 -0.035278 scale
start_ol
2176 2304 moveto
2176 3712 lineto
2624 3712 lineto
2624 0 lineto
2176 0 lineto
2176 384 lineto
2040 157 1832 46 conicto
1624 -64 1332 -64 conicto
855 -64 555 324 conicto
256 712 256 1344 conicto
256 1976 555 2364 conicto
855 2752 1332 2752 conicto
1624 2752 1832 2641 conicto
2040 2531 2176 2304 conicto
704 1344 moveto
704 865 900 592 conicto
1096 320 1439 320 conicto
1782 320 1979 592 conicto
2176 865 2176 1344 conicto
2176 1823 1979 2095 conicto
1782 2368 1439 2368 conicto
1096 2368 900 2095 conicto
704 1823 704 1344 conicto
end_ol grestore 
gsave 10.441297 11.221250 translate 0.035278 -0.035278 scale
start_ol
2752 1480 moveto
2752 1280 lineto
704 1280 lineto
733 811 978 565 conicto
1223 320 1660 320 conicto
1914 320 2152 384 conicto
2390 448 2624 576 conicto
2624 192 lineto
2388 67 2140 1 conicto
1893 -64 1639 -64 conicto
1001 -64 628 309 conicto
256 683 256 1320 conicto
256 1979 613 2365 conicto
970 2752 1576 2752 conicto
2120 2752 2436 2410 conicto
2752 2068 2752 1480 conicto
2304 1600 moveto
2299 1950 2099 2159 conicto
1900 2368 1572 2368 conicto
1200 2368 976 2166 conicto
753 1964 719 1597 conicto
2304 1600 lineto
end_ol grestore 
0.100000 slw
[] 0 sd
[] 0 sd
0 slj
1.000000 1.000000 1.000000 srgb
n 8.000000 12.000000 m 8.000000 16.000000 l 12.000000 16.000000 l 12.000000 12.000000 l f
0.000000 0.000000 0.000000 srgb
n 8.000000 12.000000 m 8.000000 16.000000 l 12.000000 16.000000 l 12.000000 12.000000 l cp s
gsave 9.283750 12.971250 translate 0.035278 -0.035278 scale
start_ol
448 3520 moveto
2688 3520 lineto
2688 3136 lineto
960 3136 lineto
960 2112 lineto
2624 2112 lineto
2624 1728 lineto
960 1728 lineto
960 384 lineto
2752 384 lineto
2752 0 lineto
448 0 lineto
448 3520 lineto
end_ol grestore 
gsave 9.688364 12.971250 translate 0.035278 -0.035278 scale
start_ol
2549 2204 moveto
2714 2485 2942 2618 conicto
3171 2752 3482 2752 conicto
3899 2752 4125 2464 conicto
4352 2177 4352 1646 conicto
4352 0 lineto
3904 0 lineto
3904 1632 lineto
3904 2006 3769 2187 conicto
3634 2368 3356 2368 conicto
3017 2368 2820 2146 conicto
2624 1925 2624 1542 conicto
2624 0 lineto
2176 0 lineto
2176 1632 lineto
2176 2008 2041 2188 conicto
1906 2368 1624 2368 conicto
1289 2368 1092 2145 conicto
896 1922 896 1542 conicto
896 0 lineto
448 0 lineto
448 2688 lineto
896 2688 lineto
896 2304 lineto
1046 2534 1255 2643 conicto
1465 2752 1753 2752 conicto
2044 2752 2247 2611 conicto
2451 2471 2549 2204 conicto
end_ol grestore 
gsave 10.310275 12.971250 translate 0.035278 -0.035278 scale
start_ol
448 1040 moveto
448 2688 lineto
896 2688 lineto
896 1057 lineto
896 689 1042 504 conicto
1188 320 1481 320 conicto
1832 320 2036 541 conicto
2240 763 2240 1145 conicto
2240 2688 lineto
2688 2688 lineto
2688 0 lineto
2240 0 lineto
2240 384 lineto
2081 157 1870 46 conicto
1660 -64 1382 -64 conicto
923 -64 685 217 conicto
448 499 448 1040 conicto
1554 2752 moveto
1554 2752 lineto
end_ol grestore 
gsave 9.437500 13.771250 translate 0.035278 -0.035278 scale
start_ol
448 3520 moveto
1131 3520 lineto
2624 575 lineto
2624 3520 lineto
3136 3520 lineto
3136 0 lineto
2453 0 lineto
960 2945 lineto
960 0 lineto
448 0 lineto
448 3520 lineto
end_ol grestore 
gsave 9.917049 13.771250 translate 0.035278 -0.035278 scale
start_ol
2752 1480 moveto
2752 1280 lineto
704 1280 lineto
733 811 978 565 conicto
1223 320 1660 320 conicto
1914 320 2152 384 conicto
2390 448 2624 576 conicto
2624 192 lineto
2388 67 2140 1 conicto
1893 -64 1639 -64 conicto
1001 -64 628 309 conicto
256 683 256 1320 conicto
256 1979 613 2365 conicto
970 2752 1576 2752 conicto
2120 2752 2436 2410 conicto
2752 2068 2752 1480 conicto
2304 1600 moveto
2299 1950 2099 2159 conicto
1900 2368 1572 2368 conicto
1200 2368 976 2166 conicto
753 1964 719 1597 conicto
2304 1600 lineto
end_ol grestore 
gsave 10.311675 13.771250 translate 0.035278 -0.035278 scale
start_ol
896 3456 moveto
896 2688 lineto
1792 2688 lineto
1792 2368 lineto
896 2368 lineto
896 902 lineto
896 572 984 478 conicto
1073 384 1345 384 conicto
1792 384 lineto
1792 0 lineto
1345 0 lineto
836 0 642 194 conicto
448 389 448 902 conicto
448 2368 lineto
128 2368 lineto
128 2688 lineto
448 2688 lineto
448 3456 lineto
896 3456 lineto
end_ol grestore 
gsave 8.903750 14.571250 translate 0.035278 -0.035278 scale
start_ol
960 3136 moveto
960 384 lineto
1536 384 lineto
2266 384 2605 716 conicto
2944 1048 2944 1764 conicto
2944 2475 2605 2805 conicto
2266 3136 1536 3136 conicto
960 3136 lineto
448 3520 moveto
1463 3520 lineto
2493 3520 2974 3094 conicto
3456 2669 3456 1764 conicto
3456 853 2972 426 conicto
2488 0 1463 0 conicto
448 0 lineto
448 3520 lineto
end_ol grestore 
gsave 9.395784 14.571250 translate 0.035278 -0.035278 scale
start_ol
2752 1480 moveto
2752 1280 lineto
704 1280 lineto
733 811 978 565 conicto
1223 320 1660 320 conicto
1914 320 2152 384 conicto
2390 448 2624 576 conicto
2624 192 lineto
2388 67 2140 1 conicto
1893 -64 1639 -64 conicto
1001 -64 628 309 conicto
256 683 256 1320 conicto
256 1979 613 2365 conicto
970 2752 1576 2752 conicto
2120 2752 2436 2410 conicto
2752 2068 2752 1480 conicto
2304 1600 moveto
2299 1950 2099 2159 conicto
1900 2368 1572 2368 conicto
1200 2368 976 2166 conicto
753 1964 719 1597 conicto
2304 1600 lineto
end_ol grestore 
gsave 9.790410 14.571250 translate 0.035278 -0.035278 scale
start_ol
128 2688 moveto
586 2688 lineto
1408 432 lineto
2230 2688 lineto
2688 2688 lineto
1702 0 lineto
1114 0 lineto
128 2688 lineto
end_ol grestore 
gsave 10.170054 14.571250 translate 0.035278 -0.035278 scale
start_ol
448 2688 moveto
896 2688 lineto
896 0 lineto
448 0 lineto
448 2688 lineto
448 3712 moveto
896 3712 lineto
896 3136 lineto
448 3136 lineto
448 3712 lineto
end_ol grestore 
gsave 10.347383 14.571250 translate 0.035278 -0.035278 scale
start_ol
2368 2560 moveto
2368 2176 lineto
2180 2272 1991 2320 conicto
1803 2368 1611 2368 conicto
1180 2368 942 2099 conicto
704 1830 704 1344 conicto
704 858 942 589 conicto
1180 320 1611 320 conicto
1803 320 1991 368 conicto
2180 416 2368 512 conicto
2368 128 lineto
2184 32 1987 -16 conicto
1791 -64 1569 -64 conicto
966 -64 611 316 conicto
256 697 256 1344 conicto
256 2000 615 2376 conicto
974 2752 1598 2752 conicto
1801 2752 1994 2704 conicto
2187 2656 2368 2560 conicto
end_ol grestore 
gsave 10.699551 14.571250 translate 0.035278 -0.035278 scale
start_ol
2752 1480 moveto
2752 1280 lineto
704 1280 lineto
733 811 978 565 conicto
1223 320 1660 320 conicto
1914 320 2152 384 conicto
2390 448 2624 576 conicto
2624 192 lineto
2388 67 2140 1 conicto
1893 -64 1639 -64 conicto
1001 -64 628 309 conicto
256 683 256 1320 conicto
256 1979 613 2365 conicto
970 2752 1576 2752 conicto
2120 2752 2436 2410 conicto
2752 2068 2752 1480 conicto
2304 1600 moveto
2299 1950 2099 2159 conicto
1900 2368 1572 2368 conicto
1200 2368 976 2166 conicto
753 1964 719 1597 conicto
2304 1600 lineto
end_ol grestore 
0.100000 slw
[] 0 sd
[] 0 sd
1 slj
0.901961 0.901961 0.980392 srgb
n 8.000000 15.000000 m 8.000000 18.000000 l 12.000000 18.000000 l 12.000000 15.000000 l f
0.000000 0.000000 0.000000 srgb
n 8.000000 15.000000 m 8.000000 18.000000 l 12.000000 18.000000 l 12.000000 15.000000 l cp s
gsave 9.327500 16.321250 translate 0.035278 -0.035278 scale
start_ol
2140 1632 moveto
2295 1581 2442 1413 conicto
2590 1245 2738 952 conicto
3200 0 lineto
2709 0 lineto
2250 893 lineto
2077 1243 1915 1357 conicto
1753 1472 1473 1472 conicto
960 1472 lineto
960 0 lineto
448 0 lineto
448 3520 lineto
1552 3520 lineto
2157 3520 2454 3265 conicto
2752 3010 2752 2496 conicto
2752 2161 2595 1939 conicto
2439 1718 2140 1632 conicto
960 3136 moveto
960 1856 lineto
1552 1856 lineto
1893 1856 2066 2019 conicto
2240 2182 2240 2498 conicto
2240 2815 2066 2975 conicto
1893 3136 1552 3136 conicto
960 3136 lineto
end_ol grestore 
gsave 9.757092 16.321250 translate 0.035278 -0.035278 scale
start_ol
1622 1344 moveto
1104 1344 904 1225 conicto
704 1106 704 818 conicto
704 589 854 454 conicto
1004 320 1262 320 conicto
1618 320 1833 572 conicto
2048 825 2048 1244 conicto
2048 1344 lineto
1622 1344 lineto
2496 1513 moveto
2496 0 lineto
2048 0 lineto
2048 384 lineto
1900 154 1679 45 conicto
1458 -64 1138 -64 conicto
733 -64 494 162 conicto
256 389 256 769 conicto
256 1213 555 1438 conicto
854 1664 1448 1664 conicto
2048 1664 lineto
2048 1712 lineto
2048 2025 1851 2196 conicto
1655 2368 1300 2368 conicto
1074 2368 860 2320 conicto
646 2272 448 2176 conicto
448 2560 lineto
687 2656 912 2704 conicto
1138 2752 1351 2752 conicto
1927 2752 2211 2444 conicto
2496 2137 2496 1513 conicto
end_ol grestore 
gsave 10.149221 16.321250 translate 0.035278 -0.035278 scale
start_ol
192 2688 moveto
631 2688 lineto
1179 590 lineto
1725 2688 lineto
2243 2688 lineto
2791 590 lineto
3337 2688 lineto
3776 2688 lineto
3077 0 lineto
2560 0 lineto
1985 2203 lineto
1408 0 lineto
891 0 lineto
192 2688 lineto
end_ol grestore 
gsave 8.927500 17.121250 translate 0.035278 -0.035278 scale
start_ol
2624 3392 moveto
2624 2944 lineto
2352 3073 2111 3136 conicto
1870 3200 1645 3200 conicto
1255 3200 1043 3052 conicto
832 2904 832 2631 conicto
832 2402 969 2285 conicto
1107 2169 1491 2097 conicto
1773 2039 lineto
2308 1937 2562 1678 conicto
2816 1420 2816 986 conicto
2816 469 2468 202 conicto
2121 -64 1450 -64 conicto
1197 -64 911 0 conicto
626 65 320 192 conicto
320 704 lineto
613 513 893 416 conicto
1174 320 1445 320 conicto
1857 320 2080 485 conicto
2304 650 2304 955 conicto
2304 1221 2148 1371 conicto
1992 1522 1636 1597 conicto
1352 1652 lineto
807 1756 563 1978 conicto
320 2201 320 2597 conicto
320 3056 654 3320 conicto
989 3584 1576 3584 conicto
1828 3584 2089 3536 conicto
2351 3488 2624 3392 conicto
end_ol grestore 
gsave 9.334619 17.121250 translate 0.035278 -0.035278 scale
start_ol
1473 2368 moveto
1117 2368 910 2094 conicto
704 1820 704 1344 conicto
704 868 909 594 conicto
1115 320 1473 320 conicto
1827 320 2033 595 conicto
2240 870 2240 1344 conicto
2240 1816 2033 2092 conicto
1827 2368 1473 2368 conicto
1472 2752 moveto
2040 2752 2364 2378 conicto
2688 2005 2688 1344 conicto
2688 685 2364 310 conicto
2040 -64 1472 -64 conicto
902 -64 579 310 conicto
256 685 256 1344 conicto
256 2005 579 2378 conicto
902 2752 1472 2752 conicto
end_ol grestore 
gsave 9.726748 17.121250 translate 0.035278 -0.035278 scale
start_ol
2368 2560 moveto
2368 2176 lineto
2180 2272 1991 2320 conicto
1803 2368 1611 2368 conicto
1180 2368 942 2099 conicto
704 1830 704 1344 conicto
704 858 942 589 conicto
1180 320 1611 320 conicto
1803 320 1991 368 conicto
2180 416 2368 512 conicto
2368 128 lineto
2184 32 1987 -16 conicto
1791 -64 1569 -64 conicto
966 -64 611 316 conicto
256 697 256 1344 conicto
256 2000 615 2376 conicto
974 2752 1598 2752 conicto
1801 2752 1994 2704 conicto
2187 2656 2368 2560 conicto
end_ol grestore 
gsave 10.078917 17.121250 translate 0.035278 -0.035278 scale
start_ol
448 3712 moveto
896 3712 lineto
896 1529 lineto
2196 2688 lineto
2752 2688 lineto
1346 1430 lineto
2816 0 lineto
2246 0 lineto
896 1313 lineto
896 0 lineto
448 0 lineto
448 3712 lineto
end_ol grestore 
gsave 10.426092 17.121250 translate 0.035278 -0.035278 scale
start_ol
2752 1480 moveto
2752 1280 lineto
704 1280 lineto
733 811 978 565 conicto
1223 320 1660 320 conicto
1914 320 2152 384 conicto
2390 448 2624 576 conicto
2624 192 lineto
2388 67 2140 1 conicto
1893 -64 1639 -64 conicto
1001 -64 628 309 conicto
256 683 256 1320 conicto
256 1979 613 2365 conicto
970 2752 1576 2752 conicto
2120 2752 2436 2410 conicto
2752 2068 2752 1480 conicto
2304 1600 moveto
2299 1950 2099 2159 conicto
1900 2368 1572 2368 conicto
1200 2368 976 2166 conicto
753 1964 719 1597 conicto
2304 1600 lineto
end_ol grestore 
gsave 10.820718 17.121250 translate 0.035278 -0.035278 scale
start_ol
896 3456 moveto
896 2688 lineto
1792 2688 lineto
1792 2368 lineto
896 2368 lineto
896 902 lineto
896 572 984 478 conicto
1073 384 1345 384 conicto
1792 384 lineto
1792 0 lineto
1345 0 lineto
836 0 642 194 conicto
448 389 448 902 conicto
448 2368 lineto
128 2368 lineto
128 2688 lineto
448 2688 lineto
448 3456 lineto
896 3456 lineto
end_ol grestore 
0.100000 slw
[] 0 sd
[] 0 sd
1 slj
0.901961 0.901961 0.980392 srgb
n 17.000000 5.000000 m 17.000000 21.000000 l 27.000000 21.000000 l 27.000000 5.000000 l f
0.000000 0.000000 0.000000 srgb
n 17.000000 5.000000 m 17.000000 21.000000 l 27.000000 21.000000 l 27.000000 5.000000 l cp s
0.100000 slw
[] 0 sd
[] 0 sd
0 slj
1.000000 1.000000 1.000000 srgb
n 18.000000 7.000000 m 18.000000 16.000000 l 26.000000 16.000000 l 26.000000 7.000000 l f
0.000000 0.000000 0.000000 srgb
n 18.000000 7.000000 m 18.000000 16.000000 l 26.000000 16.000000 l 26.000000 7.000000 l cp s
gsave 19.507500 8.000000 translate 0.035278 -0.035278 scale
start_ol
2688 1646 moveto
2688 0 lineto
2240 0 lineto
2240 1632 lineto
2240 2001 2093 2184 conicto
1947 2368 1654 2368 conicto
1302 2368 1099 2146 conicto
896 1925 896 1542 conicto
896 0 lineto
448 0 lineto
448 2688 lineto
896 2688 lineto
896 2304 lineto
1053 2529 1266 2640 conicto
1479 2752 1757 2752 conicto
2217 2752 2452 2471 conicto
2688 2191 2688 1646 conicto
end_ol grestore 
gsave 19.912114 8.000000 translate 0.035278 -0.035278 scale
start_ol
2112 2560 moveto
2112 2176 lineto
1932 2272 1738 2320 conicto
1544 2368 1336 2368 conicto
1020 2368 862 2269 conicto
704 2170 704 1972 conicto
704 1821 814 1735 conicto
925 1649 1260 1571 conicto
1403 1538 lineto
1857 1438 2048 1255 conicto
2240 1072 2240 744 conicto
2240 371 1954 153 conicto
1668 -64 1167 -64 conicto
958 -64 732 -16 conicto
506 32 256 128 conicto
256 576 lineto
491 448 719 384 conicto
947 320 1170 320 conicto
1470 320 1631 425 conicto
1792 531 1792 722 conicto
1792 900 1678 994 conicto
1564 1089 1177 1177 conicto
1032 1212 lineto
621 1298 438 1476 conicto
256 1654 256 1964 conicto
256 2341 520 2546 conicto
784 2752 1269 2752 conicto
1509 2752 1721 2704 conicto
1933 2656 2112 2560 conicto
end_ol grestore 
gsave 20.244298 8.000000 translate 0.035278 -0.035278 scale
start_ol
256 1536 moveto
1536 1536 lineto
1536 1152 lineto
256 1152 lineto
256 1536 lineto
end_ol grestore 
gsave 20.474081 8.000000 translate 0.035278 -0.035278 scale
start_ol
1897 1936 moveto
2269 1862 2478 1627 conicto
2688 1392 2688 1046 conicto
2688 516 2331 226 conicto
1975 -64 1319 -64 conicto
1099 -64 865 -16 conicto
632 32 384 128 conicto
384 576 lineto
576 449 805 384 conicto
1035 320 1285 320 conicto
1720 320 1948 504 conicto
2176 688 2176 1039 conicto
2176 1363 1967 1545 conicto
1759 1728 1388 1728 conicto
1024 1728 lineto
1024 2112 lineto
1405 2112 lineto
1717 2112 1882 2250 conicto
2048 2388 2048 2648 conicto
2048 2915 1877 3057 conicto
1706 3200 1388 3200 conicto
1200 3200 985 3153 conicto
770 3107 512 3008 conicto
512 3456 lineto
773 3520 1001 3552 conicto
1229 3584 1431 3584 conicto
1952 3584 2256 3343 conicto
2560 3102 2560 2692 conicto
2560 2406 2387 2209 conicto
2215 2012 1897 1936 conicto
end_ol grestore 
gsave 20.881200 8.000000 translate 0.035278 -0.035278 scale
start_ol
end_ol grestore 
gsave 21.083507 8.000000 translate 0.035278 -0.035278 scale
start_ol
2624 3392 moveto
2624 2944 lineto
2352 3073 2111 3136 conicto
1870 3200 1645 3200 conicto
1255 3200 1043 3052 conicto
832 2904 832 2631 conicto
832 2402 969 2285 conicto
1107 2169 1491 2097 conicto
1773 2039 lineto
2308 1937 2562 1678 conicto
2816 1420 2816 986 conicto
2816 469 2468 202 conicto
2121 -64 1450 -64 conicto
1197 -64 911 0 conicto
626 65 320 192 conicto
320 704 lineto
613 513 893 416 conicto
1174 320 1445 320 conicto
1857 320 2080 485 conicto
2304 650 2304 955 conicto
2304 1221 2148 1371 conicto
1992 1522 1636 1597 conicto
1352 1652 lineto
807 1756 563 1978 conicto
320 2201 320 2597 conicto
320 3056 654 3320 conicto
989 3584 1576 3584 conicto
1828 3584 2089 3536 conicto
2351 3488 2624 3392 conicto
end_ol grestore 
gsave 21.490626 8.000000 translate 0.035278 -0.035278 scale
start_ol
448 2688 moveto
896 2688 lineto
896 0 lineto
448 0 lineto
448 2688 lineto
448 3712 moveto
896 3712 lineto
896 3136 lineto
448 3136 lineto
448 3712 lineto
end_ol grestore 
gsave 21.667955 8.000000 translate 0.035278 -0.035278 scale
start_ol
2549 2204 moveto
2714 2485 2942 2618 conicto
3171 2752 3482 2752 conicto
3899 2752 4125 2464 conicto
4352 2177 4352 1646 conicto
4352 0 lineto
3904 0 lineto
3904 1632 lineto
3904 2006 3769 2187 conicto
3634 2368 3356 2368 conicto
3017 2368 2820 2146 conicto
2624 1925 2624 1542 conicto
2624 0 lineto
2176 0 lineto
2176 1632 lineto
2176 2008 2041 2188 conicto
1906 2368 1624 2368 conicto
1289 2368 1092 2145 conicto
896 1922 896 1542 conicto
896 0 lineto
448 0 lineto
448 2688 lineto
896 2688 lineto
896 2304 lineto
1046 2534 1255 2643 conicto
1465 2752 1753 2752 conicto
2044 2752 2247 2611 conicto
2451 2471 2549 2204 conicto
end_ol grestore 
gsave 22.289867 8.000000 translate 0.035278 -0.035278 scale
start_ol
448 1040 moveto
448 2688 lineto
896 2688 lineto
896 1057 lineto
896 689 1042 504 conicto
1188 320 1481 320 conicto
1832 320 2036 541 conicto
2240 763 2240 1145 conicto
2240 2688 lineto
2688 2688 lineto
2688 0 lineto
2240 0 lineto
2240 384 lineto
2081 157 1870 46 conicto
1660 -64 1382 -64 conicto
923 -64 685 217 conicto
448 499 448 1040 conicto
1554 2752 moveto
1554 2752 lineto
end_ol grestore 
gsave 22.694481 8.000000 translate 0.035278 -0.035278 scale
start_ol
448 3712 moveto
896 3712 lineto
896 0 lineto
448 0 lineto
448 3712 lineto
end_ol grestore 
gsave 22.871809 8.000000 translate 0.035278 -0.035278 scale
start_ol
1622 1344 moveto
1104 1344 904 1225 conicto
704 1106 704 818 conicto
704 589 854 454 conicto
1004 320 1262 320 conicto
1618 320 1833 572 conicto
2048 825 2048 1244 conicto
2048 1344 lineto
1622 1344 lineto
2496 1513 moveto
2496 0 lineto
2048 0 lineto
2048 384 lineto
1900 154 1679 45 conicto
1458 -64 1138 -64 conicto
733 -64 494 162 conicto
256 389 256 769 conicto
256 1213 555 1438 conicto
854 1664 1448 1664 conicto
2048 1664 lineto
2048 1712 lineto
2048 2025 1851 2196 conicto
1655 2368 1300 2368 conicto
1074 2368 860 2320 conicto
646 2272 448 2176 conicto
448 2560 lineto
687 2656 912 2704 conicto
1138 2752 1351 2752 conicto
1927 2752 2211 2444 conicto
2496 2137 2496 1513 conicto
end_ol grestore 
gsave 23.263938 8.000000 translate 0.035278 -0.035278 scale
start_ol
896 3456 moveto
896 2688 lineto
1792 2688 lineto
1792 2368 lineto
896 2368 lineto
896 902 lineto
896 572 984 478 conicto
1073 384 1345 384 conicto
1792 384 lineto
1792 0 lineto
1345 0 lineto
836 0 642 194 conicto
448 389 448 902 conicto
448 2368 lineto
128 2368 lineto
128 2688 lineto
448 2688 lineto
448 3456 lineto
896 3456 lineto
end_ol grestore 
gsave 23.513705 8.000000 translate 0.035278 -0.035278 scale
start_ol
448 2688 moveto
896 2688 lineto
896 0 lineto
448 0 lineto
448 2688 lineto
448 3712 moveto
896 3712 lineto
896 3136 lineto
448 3136 lineto
448 3712 lineto
end_ol grestore 
gsave 23.691034 8.000000 translate 0.035278 -0.035278 scale
start_ol
1473 2368 moveto
1117 2368 910 2094 conicto
704 1820 704 1344 conicto
704 868 909 594 conicto
1115 320 1473 320 conicto
1827 320 2033 595 conicto
2240 870 2240 1344 conicto
2240 1816 2033 2092 conicto
1827 2368 1473 2368 conicto
1472 2752 moveto
2040 2752 2364 2378 conicto
2688 2005 2688 1344 conicto
2688 685 2364 310 conicto
2040 -64 1472 -64 conicto
902 -64 579 310 conicto
256 685 256 1344 conicto
256 2005 579 2378 conicto
902 2752 1472 2752 conicto
end_ol grestore 
gsave 24.083163 8.000000 translate 0.035278 -0.035278 scale
start_ol
2688 1646 moveto
2688 0 lineto
2240 0 lineto
2240 1632 lineto
2240 2001 2093 2184 conicto
1947 2368 1654 2368 conicto
1302 2368 1099 2146 conicto
896 1925 896 1542 conicto
896 0 lineto
448 0 lineto
448 2688 lineto
896 2688 lineto
896 2304 lineto
1053 2529 1266 2640 conicto
1479 2752 1757 2752 conicto
2217 2752 2452 2471 conicto
2688 2191 2688 1646 conicto
end_ol grestore 
gsave 21.271250 6.221250 translate 0.035278 -0.035278 scale
start_ol
448 3520 moveto
960 3520 lineto
960 2112 lineto
2624 2112 lineto
2624 3520 lineto
3136 3520 lineto
3136 0 lineto
2624 0 lineto
2624 1728 lineto
960 1728 lineto
960 0 lineto
448 0 lineto
448 3520 lineto
end_ol grestore 
gsave 21.753296 6.221250 translate 0.035278 -0.035278 scale
start_ol
1473 2368 moveto
1117 2368 910 2094 conicto
704 1820 704 1344 conicto
704 868 909 594 conicto
1115 320 1473 320 conicto
1827 320 2033 595 conicto
2240 870 2240 1344 conicto
2240 1816 2033 2092 conicto
1827 2368 1473 2368 conicto
1472 2752 moveto
2040 2752 2364 2378 conicto
2688 2005 2688 1344 conicto
2688 685 2364 310 conicto
2040 -64 1472 -64 conicto
902 -64 579 310 conicto
256 685 256 1344 conicto
256 2005 579 2378 conicto
902 2752 1472 2752 conicto
end_ol grestore 
gsave 22.145425 6.221250 translate 0.035278 -0.035278 scale
start_ol
2112 2560 moveto
2112 2176 lineto
1932 2272 1738 2320 conicto
1544 2368 1336 2368 conicto
1020 2368 862 2269 conicto
704 2170 704 1972 conicto
704 1821 814 1735 conicto
925 1649 1260 1571 conicto
1403 1538 lineto
1857 1438 2048 1255 conicto
2240 1072 2240 744 conicto
2240 371 1954 153 conicto
1668 -64 1167 -64 conicto
958 -64 732 -16 conicto
506 32 256 128 conicto
256 576 lineto
491 448 719 384 conicto
947 320 1170 320 conicto
1470 320 1631 425 conicto
1792 531 1792 722 conicto
1792 900 1678 994 conicto
1564 1089 1177 1177 conicto
1032 1212 lineto
621 1298 438 1476 conicto
256 1654 256 1964 conicto
256 2341 520 2546 conicto
784 2752 1269 2752 conicto
1509 2752 1721 2704 conicto
1933 2656 2112 2560 conicto
end_ol grestore 
gsave 22.477609 6.221250 translate 0.035278 -0.035278 scale
start_ol
896 3456 moveto
896 2688 lineto
1792 2688 lineto
1792 2368 lineto
896 2368 lineto
896 902 lineto
896 572 984 478 conicto
1073 384 1345 384 conicto
1792 384 lineto
1792 0 lineto
1345 0 lineto
836 0 642 194 conicto
448 389 448 902 conicto
448 2368 lineto
128 2368 lineto
128 2688 lineto
448 2688 lineto
448 3456 lineto
896 3456 lineto
end_ol grestore 
0.100000 slw
[] 0 sd
[] 0 sd
0 slj
1.000000 1.000000 1.000000 srgb
n 20.000000 10.000000 m 20.000000 12.000000 l 24.000000 12.000000 l 24.000000 10.000000 l f
0.000000 0.000000 0.000000 srgb
n 20.000000 10.000000 m 20.000000 12.000000 l 24.000000 12.000000 l 24.000000 10.000000 l cp s
gsave 21.162500 11.221250 translate 0.035278 -0.035278 scale
start_ol
448 3520 moveto
1131 3520 lineto
2624 575 lineto
2624 3520 lineto
3136 3520 lineto
3136 0 lineto
2453 0 lineto
960 2945 lineto
960 0 lineto
448 0 lineto
448 3520 lineto
end_ol grestore 
gsave 21.642049 11.221250 translate 0.035278 -0.035278 scale
start_ol
1473 2368 moveto
1117 2368 910 2094 conicto
704 1820 704 1344 conicto
704 868 909 594 conicto
1115 320 1473 320 conicto
1827 320 2033 595 conicto
2240 870 2240 1344 conicto
2240 1816 2033 2092 conicto
1827 2368 1473 2368 conicto
1472 2752 moveto
2040 2752 2364 2378 conicto
2688 2005 2688 1344 conicto
2688 685 2364 310 conicto
2040 -64 1472 -64 conicto
902 -64 579 310 conicto
256 685 256 1344 conicto
256 2005 579 2378 conicto
902 2752 1472 2752 conicto
end_ol grestore 
gsave 22.034178 11.221250 translate 0.035278 -0.035278 scale
start_ol
2176 2304 moveto
2176 3712 lineto
2624 3712 lineto
2624 0 lineto
2176 0 lineto
2176 384 lineto
2040 157 1832 46 conicto
1624 -64 1332 -64 conicto
855 -64 555 324 conicto
256 712 256 1344 conicto
256 1976 555 2364 conicto
855 2752 1332 2752 conicto
1624 2752 1832 2641 conicto
2040 2531 2176 2304 conicto
704 1344 moveto
704 865 900 592 conicto
1096 320 1439 320 conicto
1782 320 1979 592 conicto
2176 865 2176 1344 conicto
2176 1823 1979 2095 conicto
1782 2368 1439 2368 conicto
1096 2368 900 2095 conicto
704 1823 704 1344 conicto
end_ol grestore 
gsave 22.441297 11.221250 translate 0.035278 -0.035278 scale
start_ol
2752 1480 moveto
2752 1280 lineto
704 1280 lineto
733 811 978 565 conicto
1223 320 1660 320 conicto
1914 320 2152 384 conicto
2390 448 2624 576 conicto
2624 192 lineto
2388 67 2140 1 conicto
1893 -64 1639 -64 conicto
1001 -64 628 309 conicto
256 683 256 1320 conicto
256 1979 613 2365 conicto
970 2752 1576 2752 conicto
2120 2752 2436 2410 conicto
2752 2068 2752 1480 conicto
2304 1600 moveto
2299 1950 2099 2159 conicto
1900 2368 1572 2368 conicto
1200 2368 976 2166 conicto
753 1964 719 1597 conicto
2304 1600 lineto
end_ol grestore 
0.100000 slw
[] 0 sd
[] 0 sd
0 slj
1.000000 1.000000 1.000000 srgb
n 20.000000 12.000000 m 20.000000 16.000000 l 24.000000 16.000000 l 24.000000 12.000000 l f
0.000000 0.000000 0.000000 srgb
n 20.000000 12.000000 m 20.000000 16.000000 l 24.000000 16.000000 l 24.000000 12.000000 l cp s
gsave 21.283750 13.021250 translate 0.035278 -0.035278 scale
start_ol
448 3520 moveto
2688 3520 lineto
2688 3136 lineto
960 3136 lineto
960 2112 lineto
2624 2112 lineto
2624 1728 lineto
960 1728 lineto
960 384 lineto
2752 384 lineto
2752 0 lineto
448 0 lineto
448 3520 lineto
end_ol grestore 
gsave 21.688364 13.021250 translate 0.035278 -0.035278 scale
start_ol
2549 2204 moveto
2714 2485 2942 2618 conicto
3171 2752 3482 2752 conicto
3899 2752 4125 2464 conicto
4352 2177 4352 1646 conicto
4352 0 lineto
3904 0 lineto
3904 1632 lineto
3904 2006 3769 2187 conicto
3634 2368 3356 2368 conicto
3017 2368 2820 2146 conicto
2624 1925 2624 1542 conicto
2624 0 lineto
2176 0 lineto
2176 1632 lineto
2176 2008 2041 2188 conicto
1906 2368 1624 2368 conicto
1289 2368 1092 2145 conicto
896 1922 896 1542 conicto
896 0 lineto
448 0 lineto
448 2688 lineto
896 2688 lineto
896 2304 lineto
1046 2534 1255 2643 conicto
1465 2752 1753 2752 conicto
2044 2752 2247 2611 conicto
2451 2471 2549 2204 conicto
end_ol grestore 
gsave 22.310275 13.021250 translate 0.035278 -0.035278 scale
start_ol
448 1040 moveto
448 2688 lineto
896 2688 lineto
896 1057 lineto
896 689 1042 504 conicto
1188 320 1481 320 conicto
1832 320 2036 541 conicto
2240 763 2240 1145 conicto
2240 2688 lineto
2688 2688 lineto
2688 0 lineto
2240 0 lineto
2240 384 lineto
2081 157 1870 46 conicto
1660 -64 1382 -64 conicto
923 -64 685 217 conicto
448 499 448 1040 conicto
1554 2752 moveto
1554 2752 lineto
end_ol grestore 
gsave 21.437500 13.821250 translate 0.035278 -0.035278 scale
start_ol
448 3520 moveto
1131 3520 lineto
2624 575 lineto
2624 3520 lineto
3136 3520 lineto
3136 0 lineto
2453 0 lineto
960 2945 lineto
960 0 lineto
448 0 lineto
448 3520 lineto
end_ol grestore 
gsave 21.917049 13.821250 translate 0.035278 -0.035278 scale
start_ol
2752 1480 moveto
2752 1280 lineto
704 1280 lineto
733 811 978 565 conicto
1223 320 1660 320 conicto
1914 320 2152 384 conicto
2390 448 2624 576 conicto
2624 192 lineto
2388 67 2140 1 conicto
1893 -64 1639 -64 conicto
1001 -64 628 309 conicto
256 683 256 1320 conicto
256 1979 613 2365 conicto
970 2752 1576 2752 conicto
2120 2752 2436 2410 conicto
2752 2068 2752 1480 conicto
2304 1600 moveto
2299 1950 2099 2159 conicto
1900 2368 1572 2368 conicto
1200 2368 976 2166 conicto
753 1964 719 1597 conicto
2304 1600 lineto
end_ol grestore 
gsave 22.311675 13.821250 translate 0.035278 -0.035278 scale
start_ol
896 3456 moveto
896 2688 lineto
1792 2688 lineto
1792 2368 lineto
896 2368 lineto
896 902 lineto
896 572 984 478 conicto
1073 384 1345 384 conicto
1792 384 lineto
1792 0 lineto
1345 0 lineto
836 0 642 194 conicto
448 389 448 902 conicto
448 2368 lineto
128 2368 lineto
128 2688 lineto
448 2688 lineto
448 3456 lineto
896 3456 lineto
end_ol grestore 
gsave 20.903750 14.621250 translate 0.035278 -0.035278 scale
start_ol
960 3136 moveto
960 384 lineto
1536 384 lineto
2266 384 2605 716 conicto
2944 1048 2944 1764 conicto
2944 2475 2605 2805 conicto
2266 3136 1536 3136 conicto
960 3136 lineto
448 3520 moveto
1463 3520 lineto
2493 3520 2974 3094 conicto
3456 2669 3456 1764 conicto
3456 853 2972 426 conicto
2488 0 1463 0 conicto
448 0 lineto
448 3520 lineto
end_ol grestore 
gsave 21.395784 14.621250 translate 0.035278 -0.035278 scale
start_ol
2752 1480 moveto
2752 1280 lineto
704 1280 lineto
733 811 978 565 conicto
1223 320 1660 320 conicto
1914 320 2152 384 conicto
2390 448 2624 576 conicto
2624 192 lineto
2388 67 2140 1 conicto
1893 -64 1639 -64 conicto
1001 -64 628 309 conicto
256 683 256 1320 conicto
256 1979 613 2365 conicto
970 2752 1576 2752 conicto
2120 2752 2436 2410 conicto
2752 2068 2752 1480 conicto
2304 1600 moveto
2299 1950 2099 2159 conicto
1900 2368 1572 2368 conicto
1200 2368 976 2166 conicto
753 1964 719 1597 conicto
2304 1600 lineto
end_ol grestore 
gsave 21.790410 14.621250 translate 0.035278 -0.035278 scale
start_ol
128 2688 moveto
586 2688 lineto
1408 432 lineto
2230 2688 lineto
2688 2688 lineto
1702 0 lineto
1114 0 lineto
128 2688 lineto
end_ol grestore 
gsave 22.170054 14.621250 translate 0.035278 -0.035278 scale
start_ol
448 2688 moveto
896 2688 lineto
896 0 lineto
448 0 lineto
448 2688 lineto
448 3712 moveto
896 3712 lineto
896 3136 lineto
448 3136 lineto
448 3712 lineto
end_ol grestore 
gsave 22.347383 14.621250 translate 0.035278 -0.035278 scale
start_ol
2368 2560 moveto
2368 2176 lineto
2180 2272 1991 2320 conicto
1803 2368 1611 2368 conicto
1180 2368 942 2099 conicto
704 1830 704 1344 conicto
704 858 942 589 conicto
1180 320 1611 320 conicto
1803 320 1991 368 conicto
2180 416 2368 512 conicto
2368 128 lineto
2184 32 1987 -16 conicto
1791 -64 1569 -64 conicto
966 -64 611 316 conicto
256 697 256 1344 conicto
256 2000 615 2376 conicto
974 2752 1598 2752 conicto
1801 2752 1994 2704 conicto
2187 2656 2368 2560 conicto
end_ol grestore 
gsave 22.699551 14.621250 translate 0.035278 -0.035278 scale
start_ol
2752 1480 moveto
2752 1280 lineto
704 1280 lineto
733 811 978 565 conicto
1223 320 1660 320 conicto
1914 320 2152 384 conicto
2390 448 2624 576 conicto
2624 192 lineto
2388 67 2140 1 conicto
1893 -64 1639 -64 conicto
1001 -64 628 309 conicto
256 683 256 1320 conicto
256 1979 613 2365 conicto
970 2752 1576 2752 conicto
2120 2752 2436 2410 conicto
2752 2068 2752 1480 conicto
2304 1600 moveto
2299 1950 2099 2159 conicto
1900 2368 1572 2368 conicto
1200 2368 976 2166 conicto
753 1964 719 1597 conicto
2304 1600 lineto
end_ol grestore 
0.100000 slw
[] 0 sd
[] 0 sd
1 slj
0.901961 0.901961 0.980392 srgb
n 20.000000 15.000000 m 20.000000 18.000000 l 24.000000 18.000000 l 24.000000 15.000000 l f
0.000000 0.000000 0.000000 srgb
n 20.000000 15.000000 m 20.000000 18.000000 l 24.000000 18.000000 l 24.000000 15.000000 l cp s
gsave 21.327500 16.321250 translate 0.035278 -0.035278 scale
start_ol
2140 1632 moveto
2295 1581 2442 1413 conicto
2590 1245 2738 952 conicto
3200 0 lineto
2709 0 lineto
2250 893 lineto
2077 1243 1915 1357 conicto
1753 1472 1473 1472 conicto
960 1472 lineto
960 0 lineto
448 0 lineto
448 3520 lineto
1552 3520 lineto
2157 3520 2454 3265 conicto
2752 3010 2752 2496 conicto
2752 2161 2595 1939 conicto
2439 1718 2140 1632 conicto
960 3136 moveto
960 1856 lineto
1552 1856 lineto
1893 1856 2066 2019 conicto
2240 2182 2240 2498 conicto
2240 2815 2066 2975 conicto
1893 3136 1552 3136 conicto
960 3136 lineto
end_ol grestore 
gsave 21.757092 16.321250 translate 0.035278 -0.035278 scale
start_ol
1622 1344 moveto
1104 1344 904 1225 conicto
704 1106 704 818 conicto
704 589 854 454 conicto
1004 320 1262 320 conicto
1618 320 1833 572 conicto
2048 825 2048 1244 conicto
2048 1344 lineto
1622 1344 lineto
2496 1513 moveto
2496 0 lineto
2048 0 lineto
2048 384 lineto
1900 154 1679 45 conicto
1458 -64 1138 -64 conicto
733 -64 494 162 conicto
256 389 256 769 conicto
256 1213 555 1438 conicto
854 1664 1448 1664 conicto
2048 1664 lineto
2048 1712 lineto
2048 2025 1851 2196 conicto
1655 2368 1300 2368 conicto
1074 2368 860 2320 conicto
646 2272 448 2176 conicto
448 2560 lineto
687 2656 912 2704 conicto
1138 2752 1351 2752 conicto
1927 2752 2211 2444 conicto
2496 2137 2496 1513 conicto
end_ol grestore 
gsave 22.149221 16.321250 translate 0.035278 -0.035278 scale
start_ol
192 2688 moveto
631 2688 lineto
1179 590 lineto
1725 2688 lineto
2243 2688 lineto
2791 590 lineto
3337 2688 lineto
3776 2688 lineto
3077 0 lineto
2560 0 lineto
1985 2203 lineto
1408 0 lineto
891 0 lineto
192 2688 lineto
end_ol grestore 
gsave 20.927500 17.121250 translate 0.035278 -0.035278 scale
start_ol
2624 3392 moveto
2624 2944 lineto
2352 3073 2111 3136 conicto
1870 3200 1645 3200 conicto
1255 3200 1043 3052 conicto
832 2904 832 2631 conicto
832 2402 969 2285 conicto
1107 2169 1491 2097 conicto
1773 2039 lineto
2308 1937 2562 1678 conicto
2816 1420 2816 986 conicto
2816 469 2468 202 conicto
2121 -64 1450 -64 conicto
1197 -64 911 0 conicto
626 65 320 192 conicto
320 704 lineto
613 513 893 416 conicto
1174 320 1445 320 conicto
1857 320 2080 485 conicto
2304 650 2304 955 conicto
2304 1221 2148 1371 conicto
1992 1522 1636 1597 conicto
1352 1652 lineto
807 1756 563 1978 conicto
320 2201 320 2597 conicto
320 3056 654 3320 conicto
989 3584 1576 3584 conicto
1828 3584 2089 3536 conicto
2351 3488 2624 3392 conicto
end_ol grestore 
gsave 21.334619 17.121250 translate 0.035278 -0.035278 scale
start_ol
1473 2368 moveto
1117 2368 910 2094 conicto
704 1820 704 1344 conicto
704 868 909 594 conicto
1115 320 1473 320 conicto
1827 320 2033 595 conicto
2240 870 2240 1344 conicto
2240 1816 2033 2092 conicto
1827 2368 1473 2368 conicto
1472 2752 moveto
2040 2752 2364 2378 conicto
2688 2005 2688 1344 conicto
2688 685 2364 310 conicto
2040 -64 1472 -64 conicto
902 -64 579 310 conicto
256 685 256 1344 conicto
256 2005 579 2378 conicto
902 2752 1472 2752 conicto
end_ol grestore 
gsave 21.726748 17.121250 translate 0.035278 -0.035278 scale
start_ol
2368 2560 moveto
2368 2176 lineto
2180 2272 1991 2320 conicto
1803 2368 1611 2368 conicto
1180 2368 942 2099 conicto
704 1830 704 1344 conicto
704 858 942 589 conicto
1180 320 1611 320 conicto
1803 320 1991 368 conicto
2180 416 2368 512 conicto
2368 128 lineto
2184 32 1987 -16 conicto
1791 -64 1569 -64 conicto
966 -64 611 316 conicto
256 697 256 1344 conicto
256 2000 615 2376 conicto
974 2752 1598 2752 conicto
1801 2752 1994 2704 conicto
2187 2656 2368 2560 conicto
end_ol grestore 
gsave 22.078917 17.121250 translate 0.035278 -0.035278 scale
start_ol
448 3712 moveto
896 3712 lineto
896 1529 lineto
2196 2688 lineto
2752 2688 lineto
1346 1430 lineto
2816 0 lineto
2246 0 lineto
896 1313 lineto
896 0 lineto
448 0 lineto
448 3712 lineto
end_ol grestore 
gsave 22.426092 17.121250 translate 0.035278 -0.035278 scale
start_ol
2752 1480 moveto
2752 1280 lineto
704 1280 lineto
733 811 978 565 conicto
1223 320 1660 320 conicto
1914 320 2152 384 conicto
2390 448 2624 576 conicto
2624 192 lineto
2388 67 2140 1 conicto
1893 -64 1639 -64 conicto
1001 -64 628 309 conicto
256 683 256 1320 conicto
256 1979 613 2365 conicto
970 2752 1576 2752 conicto
2120 2752 2436 2410 conicto
2752 2068 2752 1480 conicto
2304 1600 moveto
2299 1950 2099 2159 conicto
1900 2368 1572 2368 conicto
1200 2368 976 2166 conicto
753 1964 719 1597 conicto
2304 1600 lineto
end_ol grestore 
gsave 22.820718 17.121250 translate 0.035278 -0.035278 scale
start_ol
896 3456 moveto
896 2688 lineto
1792 2688 lineto
1792 2368 lineto
896 2368 lineto
896 902 lineto
896 572 984 478 conicto
1073 384 1345 384 conicto
1792 384 lineto
1792 0 lineto
1345 0 lineto
836 0 642 194 conicto
448 389 448 902 conicto
448 2368 lineto
128 2368 lineto
128 2688 lineto
448 2688 lineto
448 3456 lineto
896 3456 lineto
end_ol grestore 
0.100000 slw
[] 0 sd
[] 0 sd
1 slj
0.901961 0.901961 0.980392 srgb
n 29.000000 5.000000 m 29.000000 21.000000 l 39.000000 21.000000 l 39.000000 5.000000 l f
0.000000 0.000000 0.000000 srgb
n 29.000000 5.000000 m 29.000000 21.000000 l 39.000000 21.000000 l 39.000000 5.000000 l cp s
0.100000 slw
[] 0 sd
[] 0 sd
0 slj
1.000000 1.000000 1.000000 srgb
n 30.000000 7.000000 m 30.000000 16.000000 l 38.000000 16.000000 l 38.000000 7.000000 l f
0.000000 0.000000 0.000000 srgb
n 30.000000 7.000000 m 30.000000 16.000000 l 38.000000 16.000000 l 38.000000 7.000000 l cp s
gsave 31.507500 8.000000 translate 0.035278 -0.035278 scale
start_ol
2688 1646 moveto
2688 0 lineto
2240 0 lineto
2240 1632 lineto
2240 2001 2093 2184 conicto
1947 2368 1654 2368 conicto
1302 2368 1099 2146 conicto
896 1925 896 1542 conicto
896 0 lineto
448 0 lineto
448 2688 lineto
896 2688 lineto
896 2304 lineto
1053 2529 1266 2640 conicto
1479 2752 1757 2752 conicto
2217 2752 2452 2471 conicto
2688 2191 2688 1646 conicto
end_ol grestore 
gsave 31.912114 8.000000 translate 0.035278 -0.035278 scale
start_ol
2112 2560 moveto
2112 2176 lineto
1932 2272 1738 2320 conicto
1544 2368 1336 2368 conicto
1020 2368 862 2269 conicto
704 2170 704 1972 conicto
704 1821 814 1735 conicto
925 1649 1260 1571 conicto
1403 1538 lineto
1857 1438 2048 1255 conicto
2240 1072 2240 744 conicto
2240 371 1954 153 conicto
1668 -64 1167 -64 conicto
958 -64 732 -16 conicto
506 32 256 128 conicto
256 576 lineto
491 448 719 384 conicto
947 320 1170 320 conicto
1470 320 1631 425 conicto
1792 531 1792 722 conicto
1792 900 1678 994 conicto
1564 1089 1177 1177 conicto
1032 1212 lineto
621 1298 438 1476 conicto
256 1654 256 1964 conicto
256 2341 520 2546 conicto
784 2752 1269 2752 conicto
1509 2752 1721 2704 conicto
1933 2656 2112 2560 conicto
end_ol grestore 
gsave 32.244298 8.000000 translate 0.035278 -0.035278 scale
start_ol
256 1536 moveto
1536 1536 lineto
1536 1152 lineto
256 1152 lineto
256 1536 lineto
end_ol grestore 
gsave 32.474081 8.000000 translate 0.035278 -0.035278 scale
start_ol
1897 1936 moveto
2269 1862 2478 1627 conicto
2688 1392 2688 1046 conicto
2688 516 2331 226 conicto
1975 -64 1319 -64 conicto
1099 -64 865 -16 conicto
632 32 384 128 conicto
384 576 lineto
576 449 805 384 conicto
1035 320 1285 320 conicto
1720 320 1948 504 conicto
2176 688 2176 1039 conicto
2176 1363 1967 1545 conicto
1759 1728 1388 1728 conicto
1024 1728 lineto
1024 2112 lineto
1405 2112 lineto
1717 2112 1882 2250 conicto
2048 2388 2048 2648 conicto
2048 2915 1877 3057 conicto
1706 3200 1388 3200 conicto
1200 3200 985 3153 conicto
770 3107 512 3008 conicto
512 3456 lineto
773 3520 1001 3552 conicto
1229 3584 1431 3584 conicto
1952 3584 2256 3343 conicto
2560 3102 2560 2692 conicto
2560 2406 2387 2209 conicto
2215 2012 1897 1936 conicto
end_ol grestore 
gsave 32.881200 8.000000 translate 0.035278 -0.035278 scale
start_ol
end_ol grestore 
gsave 33.083507 8.000000 translate 0.035278 -0.035278 scale
start_ol
2624 3392 moveto
2624 2944 lineto
2352 3073 2111 3136 conicto
1870 3200 1645 3200 conicto
1255 3200 1043 3052 conicto
832 2904 832 2631 conicto
832 2402 969 2285 conicto
1107 2169 1491 2097 conicto
1773 2039 lineto
2308 1937 2562 1678 conicto
2816 1420 2816 986 conicto
2816 469 2468 202 conicto
2121 -64 1450 -64 conicto
1197 -64 911 0 conicto
626 65 320 192 conicto
320 704 lineto
613 513 893 416 conicto
1174 320 1445 320 conicto
1857 320 2080 485 conicto
2304 650 2304 955 conicto
2304 1221 2148 1371 conicto
1992 1522 1636 1597 conicto
1352 1652 lineto
807 1756 563 1978 conicto
320 2201 320 2597 conicto
320 3056 654 3320 conicto
989 3584 1576 3584 conicto
1828 3584 2089 3536 conicto
2351 3488 2624 3392 conicto
end_ol grestore 
gsave 33.490626 8.000000 translate 0.035278 -0.035278 scale
start_ol
448 2688 moveto
896 2688 lineto
896 0 lineto
448 0 lineto
448 2688 lineto
448 3712 moveto
896 3712 lineto
896 3136 lineto
448 3136 lineto
448 3712 lineto
end_ol grestore 
gsave 33.667955 8.000000 translate 0.035278 -0.035278 scale
start_ol
2549 2204 moveto
2714 2485 2942 2618 conicto
3171 2752 3482 2752 conicto
3899 2752 4125 2464 conicto
4352 2177 4352 1646 conicto
4352 0 lineto
3904 0 lineto
3904 1632 lineto
3904 2006 3769 2187 conicto
3634 2368 3356 2368 conicto
3017 2368 2820 2146 conicto
2624 1925 2624 1542 conicto
2624 0 lineto
2176 0 lineto
2176 1632 lineto
2176 2008 2041 2188 conicto
1906 2368 1624 2368 conicto
1289 2368 1092 2145 conicto
896 1922 896 1542 conicto
896 0 lineto
448 0 lineto
448 2688 lineto
896 2688 lineto
896 2304 lineto
1046 2534 1255 2643 conicto
1465 2752 1753 2752 conicto
2044 2752 2247 2611 conicto
2451 2471 2549 2204 conicto
end_ol grestore 
gsave 34.289867 8.000000 translate 0.035278 -0.035278 scale
start_ol
448 1040 moveto
448 2688 lineto
896 2688 lineto
896 1057 lineto
896 689 1042 504 conicto
1188 320 1481 320 conicto
1832 320 2036 541 conicto
2240 763 2240 1145 conicto
2240 2688 lineto
2688 2688 lineto
2688 0 lineto
2240 0 lineto
2240 384 lineto
2081 157 1870 46 conicto
1660 -64 1382 -64 conicto
923 -64 685 217 conicto
448 499 448 1040 conicto
1554 2752 moveto
1554 2752 lineto
end_ol grestore 
gsave 34.694481 8.000000 translate 0.035278 -0.035278 scale
start_ol
448 3712 moveto
896 3712 lineto
896 0 lineto
448 0 lineto
448 3712 lineto
end_ol grestore 
gsave 34.871809 8.000000 translate 0.035278 -0.035278 scale
start_ol
1622 1344 moveto
1104 1344 904 1225 conicto
704 1106 704 818 conicto
704 589 854 454 conicto
1004 320 1262 320 conicto
1618 320 1833 572 conicto
2048 825 2048 1244 conicto
2048 1344 lineto
1622 1344 lineto
2496 1513 moveto
2496 0 lineto
2048 0 lineto
2048 384 lineto
1900 154 1679 45 conicto
1458 -64 1138 -64 conicto
733 -64 494 162 conicto
256 389 256 769 conicto
256 1213 555 1438 conicto
854 1664 1448 1664 conicto
2048 1664 lineto
2048 1712 lineto
2048 2025 1851 2196 conicto
1655 2368 1300 2368 conicto
1074 2368 860 2320 conicto
646 2272 448 2176 conicto
448 2560 lineto
687 2656 912 2704 conicto
1138 2752 1351 2752 conicto
1927 2752 2211 2444 conicto
2496 2137 2496 1513 conicto
end_ol grestore 
gsave 35.263938 8.000000 translate 0.035278 -0.035278 scale
start_ol
896 3456 moveto
896 2688 lineto
1792 2688 lineto
1792 2368 lineto
896 2368 lineto
896 902 lineto
896 572 984 478 conicto
1073 384 1345 384 conicto
1792 384 lineto
1792 0 lineto
1345 0 lineto
836 0 642 194 conicto
448 389 448 902 conicto
448 2368 lineto
128 2368 lineto
128 2688 lineto
448 2688 lineto
448 3456 lineto
896 3456 lineto
end_ol grestore 
gsave 35.513705 8.000000 translate 0.035278 -0.035278 scale
start_ol
448 2688 moveto
896 2688 lineto
896 0 lineto
448 0 lineto
448 2688 lineto
448 3712 moveto
896 3712 lineto
896 3136 lineto
448 3136 lineto
448 3712 lineto
end_ol grestore 
gsave 35.691034 8.000000 translate 0.035278 -0.035278 scale
start_ol
1473 2368 moveto
1117 2368 910 2094 conicto
704 1820 704 1344 conicto
704 868 909 594 conicto
1115 320 1473 320 conicto
1827 320 2033 595 conicto
2240 870 2240 1344 conicto
2240 1816 2033 2092 conicto
1827 2368 1473 2368 conicto
1472 2752 moveto
2040 2752 2364 2378 conicto
2688 2005 2688 1344 conicto
2688 685 2364 310 conicto
2040 -64 1472 -64 conicto
902 -64 579 310 conicto
256 685 256 1344 conicto
256 2005 579 2378 conicto
902 2752 1472 2752 conicto
end_ol grestore 
gsave 36.083163 8.000000 translate 0.035278 -0.035278 scale
start_ol
2688 1646 moveto
2688 0 lineto
2240 0 lineto
2240 1632 lineto
2240 2001 2093 2184 conicto
1947 2368 1654 2368 conicto
1302 2368 1099 2146 conicto
896 1925 896 1542 conicto
896 0 lineto
448 0 lineto
448 2688 lineto
896 2688 lineto
896 2304 lineto
1053 2529 1266 2640 conicto
1479 2752 1757 2752 conicto
2217 2752 2452 2471 conicto
2688 2191 2688 1646 conicto
end_ol grestore 
gsave 33.271250 6.221250 translate 0.035278 -0.035278 scale
start_ol
448 3520 moveto
960 3520 lineto
960 2112 lineto
2624 2112 lineto
2624 3520 lineto
3136 3520 lineto
3136 0 lineto
2624 0 lineto
2624 1728 lineto
960 1728 lineto
960 0 lineto
448 0 lineto
448 3520 lineto
end_ol grestore 
gsave 33.753296 6.221250 translate 0.035278 -0.035278 scale
start_ol
1473 2368 moveto
1117 2368 910 2094 conicto
704 1820 704 1344 conicto
704 868 909 594 conicto
1115 320 1473 320 conicto
1827 320 2033 595 conicto
2240 870 2240 1344 conicto
2240 1816 2033 2092 conicto
1827 2368 1473 2368 conicto
1472 2752 moveto
2040 2752 2364 2378 conicto
2688 2005 2688 1344 conicto
2688 685 2364 310 conicto
2040 -64 1472 -64 conicto
902 -64 579 310 conicto
256 685 256 1344 conicto
256 2005 579 2378 conicto
902 2752 1472 2752 conicto
end_ol grestore 
gsave 34.145425 6.221250 translate 0.035278 -0.035278 scale
start_ol
2112 2560 moveto
2112 2176 lineto
1932 2272 1738 2320 conicto
1544 2368 1336 2368 conicto
1020 2368 862 2269 conicto
704 2170 704 1972 conicto
704 1821 814 1735 conicto
925 1649 1260 1571 conicto
1403 1538 lineto
1857 1438 2048 1255 conicto
2240 1072 2240 744 conicto
2240 371 1954 153 conicto
1668 -64 1167 -64 conicto
958 -64 732 -16 conicto
506 32 256 128 conicto
256 576 lineto
491 448 719 384 conicto
947 320 1170 320 conicto
1470 320 1631 425 conicto
1792 531 1792 722 conicto
1792 900 1678 994 conicto
1564 1089 1177 1177 conicto
1032 1212 lineto
621 1298 438 1476 conicto
256 1654 256 1964 conicto
256 2341 520 2546 conicto
784 2752 1269 2752 conicto
1509 2752 1721 2704 conicto
1933 2656 2112 2560 conicto
end_ol grestore 
gsave 34.477609 6.221250 translate 0.035278 -0.035278 scale
start_ol
896 3456 moveto
896 2688 lineto
1792 2688 lineto
1792 2368 lineto
896 2368 lineto
896 902 lineto
896 572 984 478 conicto
1073 384 1345 384 conicto
1792 384 lineto
1792 0 lineto
1345 0 lineto
836 0 642 194 conicto
448 389 448 902 conicto
448 2368 lineto
128 2368 lineto
128 2688 lineto
448 2688 lineto
448 3456 lineto
896 3456 lineto
end_ol grestore 
0.100000 slw
[] 0 sd
[] 0 sd
0 slj
1.000000 1.000000 1.000000 srgb
n 32.000000 10.000000 m 32.000000 12.000000 l 36.000000 12.000000 l 36.000000 10.000000 l f
0.000000 0.000000 0.000000 srgb
n 32.000000 10.000000 m 32.000000 12.000000 l 36.000000 12.000000 l 36.000000 10.000000 l cp s
gsave 33.162500 11.221250 translate 0.035278 -0.035278 scale
start_ol
448 3520 moveto
1131 3520 lineto
2624 575 lineto
2624 3520 lineto
3136 3520 lineto
3136 0 lineto
2453 0 lineto
960 2945 lineto
960 0 lineto
448 0 lineto
448 3520 lineto
end_ol grestore 
gsave 33.642049 11.221250 translate 0.035278 -0.035278 scale
start_ol
1473 2368 moveto
1117 2368 910 2094 conicto
704 1820 704 1344 conicto
704 868 909 594 conicto
1115 320 1473 320 conicto
1827 320 2033 595 conicto
2240 870 2240 1344 conicto
2240 1816 2033 2092 conicto
1827 2368 1473 2368 conicto
1472 2752 moveto
2040 2752 2364 2378 conicto
2688 2005 2688 1344 conicto
2688 685 2364 310 conicto
2040 -64 1472 -64 conicto
902 -64 579 310 conicto
256 685 256 1344 conicto
256 2005 579 2378 conicto
902 2752 1472 2752 conicto
end_ol grestore 
gsave 34.034178 11.221250 translate 0.035278 -0.035278 scale
start_ol
2176 2304 moveto
2176 3712 lineto
2624 3712 lineto
2624 0 lineto
2176 0 lineto
2176 384 lineto
2040 157 1832 46 conicto
1624 -64 1332 -64 conicto
855 -64 555 324 conicto
256 712 256 1344 conicto
256 1976 555 2364 conicto
855 2752 1332 2752 conicto
1624 2752 1832 2641 conicto
2040 2531 2176 2304 conicto
704 1344 moveto
704 865 900 592 conicto
1096 320 1439 320 conicto
1782 320 1979 592 conicto
2176 865 2176 1344 conicto
2176 1823 1979 2095 conicto
1782 2368 1439 2368 conicto
1096 2368 900 2095 conicto
704 1823 704 1344 conicto
end_ol grestore 
gsave 34.441297 11.221250 translate 0.035278 -0.035278 scale
start_ol
2752 1480 moveto
2752 1280 lineto
704 1280 lineto
733 811 978 565 conicto
1223 320 1660 320 conicto
1914 320 2152 384 conicto
2390 448 2624 576 conicto
2624 192 lineto
2388 67 2140 1 conicto
1893 -64 1639 -64 conicto
1001 -64 628 309 conicto
256 683 256 1320 conicto
256 1979 613 2365 conicto
970 2752 1576 2752 conicto
2120 2752 2436 2410 conicto
2752 2068 2752 1480 conicto
2304 1600 moveto
2299 1950 2099 2159 conicto
1900 2368 1572 2368 conicto
1200 2368 976 2166 conicto
753 1964 719 1597 conicto
2304 1600 lineto
end_ol grestore 
0.100000 slw
[] 0 sd
[] 0 sd
0 slj
1.000000 1.000000 1.000000 srgb
n 32.000000 12.000000 m 32.000000 16.000000 l 36.000000 16.000000 l 36.000000 12.000000 l f
0.000000 0.000000 0.000000 srgb
n 32.000000 12.000000 m 32.000000 16.000000 l 36.000000 16.000000 l 36.000000 12.000000 l cp s
gsave 33.283750 12.971250 translate 0.035278 -0.035278 scale
start_ol
448 3520 moveto
2688 3520 lineto
2688 3136 lineto
960 3136 lineto
960 2112 lineto
2624 2112 lineto
2624 1728 lineto
960 1728 lineto
960 384 lineto
2752 384 lineto
2752 0 lineto
448 0 lineto
448 3520 lineto
end_ol grestore 
gsave 33.688364 12.971250 translate 0.035278 -0.035278 scale
start_ol
2549 2204 moveto
2714 2485 2942 2618 conicto
3171 2752 3482 2752 conicto
3899 2752 4125 2464 conicto
4352 2177 4352 1646 conicto
4352 0 lineto
3904 0 lineto
3904 1632 lineto
3904 2006 3769 2187 conicto
3634 2368 3356 2368 conicto
3017 2368 2820 2146 conicto
2624 1925 2624 1542 conicto
2624 0 lineto
2176 0 lineto
2176 1632 lineto
2176 2008 2041 2188 conicto
1906 2368 1624 2368 conicto
1289 2368 1092 2145 conicto
896 1922 896 1542 conicto
896 0 lineto
448 0 lineto
448 2688 lineto
896 2688 lineto
896 2304 lineto
1046 2534 1255 2643 conicto
1465 2752 1753 2752 conicto
2044 2752 2247 2611 conicto
2451 2471 2549 2204 conicto
end_ol grestore 
gsave 34.310275 12.971250 translate 0.035278 -0.035278 scale
start_ol
448 1040 moveto
448 2688 lineto
896 2688 lineto
896 1057 lineto
896 689 1042 504 conicto
1188 320 1481 320 conicto
1832 320 2036 541 conicto
2240 763 2240 1145 conicto
2240 2688 lineto
2688 2688 lineto
2688 0 lineto
2240 0 lineto
2240 384 lineto
2081 157 1870 46 conicto
1660 -64 1382 -64 conicto
923 -64 685 217 conicto
448 499 448 1040 conicto
1554 2752 moveto
1554 2752 lineto
end_ol grestore 
gsave 33.437500 13.771250 translate 0.035278 -0.035278 scale
start_ol
448 3520 moveto
1131 3520 lineto
2624 575 lineto
2624 3520 lineto
3136 3520 lineto
3136 0 lineto
2453 0 lineto
960 2945 lineto
960 0 lineto
448 0 lineto
448 3520 lineto
end_ol grestore 
gsave 33.917049 13.771250 translate 0.035278 -0.035278 scale
start_ol
2752 1480 moveto
2752 1280 lineto
704 1280 lineto
733 811 978 565 conicto
1223 320 1660 320 conicto
1914 320 2152 384 conicto
2390 448 2624 576 conicto
2624 192 lineto
2388 67 2140 1 conicto
1893 -64 1639 -64 conicto
1001 -64 628 309 conicto
256 683 256 1320 conicto
256 1979 613 2365 conicto
970 2752 1576 2752 conicto
2120 2752 2436 2410 conicto
2752 2068 2752 1480 conicto
2304 1600 moveto
2299 1950 2099 2159 conicto
1900 2368 1572 2368 conicto
1200 2368 976 2166 conicto
753 1964 719 1597 conicto
2304 1600 lineto
end_ol grestore 
gsave 34.311675 13.771250 translate 0.035278 -0.035278 scale
start_ol
896 3456 moveto
896 2688 lineto
1792 2688 lineto
1792 2368 lineto
896 2368 lineto
896 902 lineto
896 572 984 478 conicto
1073 384 1345 384 conicto
1792 384 lineto
1792 0 lineto
1345 0 lineto
836 0 642 194 conicto
448 389 448 902 conicto
448 2368 lineto
128 2368 lineto
128 2688 lineto
448 2688 lineto
448 3456 lineto
896 3456 lineto
end_ol grestore 
gsave 32.903750 14.571250 translate 0.035278 -0.035278 scale
start_ol
960 3136 moveto
960 384 lineto
1536 384 lineto
2266 384 2605 716 conicto
2944 1048 2944 1764 conicto
2944 2475 2605 2805 conicto
2266 3136 1536 3136 conicto
960 3136 lineto
448 3520 moveto
1463 3520 lineto
2493 3520 2974 3094 conicto
3456 2669 3456 1764 conicto
3456 853 2972 426 conicto
2488 0 1463 0 conicto
448 0 lineto
448 3520 lineto
end_ol grestore 
gsave 33.395784 14.571250 translate 0.035278 -0.035278 scale
start_ol
2752 1480 moveto
2752 1280 lineto
704 1280 lineto
733 811 978 565 conicto
1223 320 1660 320 conicto
1914 320 2152 384 conicto
2390 448 2624 576 conicto
2624 192 lineto
2388 67 2140 1 conicto
1893 -64 1639 -64 conicto
1001 -64 628 309 conicto
256 683 256 1320 conicto
256 1979 613 2365 conicto
970 2752 1576 2752 conicto
2120 2752 2436 2410 conicto
2752 2068 2752 1480 conicto
2304 1600 moveto
2299 1950 2099 2159 conicto
1900 2368 1572 2368 conicto
1200 2368 976 2166 conicto
753 1964 719 1597 conicto
2304 1600 lineto
end_ol grestore 
gsave 33.790410 14.571250 translate 0.035278 -0.035278 scale
start_ol
128 2688 moveto
586 2688 lineto
1408 432 lineto
2230 2688 lineto
2688 2688 lineto
1702 0 lineto
1114 0 lineto
128 2688 lineto
end_ol grestore 
gsave 34.170054 14.571250 translate 0.035278 -0.035278 scale
start_ol
448 2688 moveto
896 2688 lineto
896 0 lineto
448 0 lineto
448 2688 lineto
448 3712 moveto
896 3712 lineto
896 3136 lineto
448 3136 lineto
448 3712 lineto
end_ol grestore 
gsave 34.347383 14.571250 translate 0.035278 -0.035278 scale
start_ol
2368 2560 moveto
2368 2176 lineto
2180 2272 1991 2320 conicto
1803 2368 1611 2368 conicto
1180 2368 942 2099 conicto
704 1830 704 1344 conicto
704 858 942 589 conicto
1180 320 1611 320 conicto
1803 320 1991 368 conicto
2180 416 2368 512 conicto
2368 128 lineto
2184 32 1987 -16 conicto
1791 -64 1569 -64 conicto
966 -64 611 316 conicto
256 697 256 1344 conicto
256 2000 615 2376 conicto
974 2752 1598 2752 conicto
1801 2752 1994 2704 conicto
2187 2656 2368 2560 conicto
end_ol grestore 
gsave 34.699551 14.571250 translate 0.035278 -0.035278 scale
start_ol
2752 1480 moveto
2752 1280 lineto
704 1280 lineto
733 811 978 565 conicto
1223 320 1660 320 conicto
1914 320 2152 384 conicto
2390 448 2624 576 conicto
2624 192 lineto
2388 67 2140 1 conicto
1893 -64 1639 -64 conicto
1001 -64 628 309 conicto
256 683 256 1320 conicto
256 1979 613 2365 conicto
970 2752 1576 2752 conicto
2120 2752 2436 2410 conicto
2752 2068 2752 1480 conicto
2304 1600 moveto
2299 1950 2099 2159 conicto
1900 2368 1572 2368 conicto
1200 2368 976 2166 conicto
753 1964 719 1597 conicto
2304 1600 lineto
end_ol grestore 
0.100000 slw
[] 0 sd
[] 0 sd
1 slj
0.901961 0.901961 0.980392 srgb
n 32.000000 15.000000 m 32.000000 18.000000 l 36.000000 18.000000 l 36.000000 15.000000 l f
0.000000 0.000000 0.000000 srgb
n 32.000000 15.000000 m 32.000000 18.000000 l 36.000000 18.000000 l 36.000000 15.000000 l cp s
gsave 33.327500 16.321250 translate 0.035278 -0.035278 scale
start_ol
2140 1632 moveto
2295 1581 2442 1413 conicto
2590 1245 2738 952 conicto
3200 0 lineto
2709 0 lineto
2250 893 lineto
2077 1243 1915 1357 conicto
1753 1472 1473 1472 conicto
960 1472 lineto
960 0 lineto
448 0 lineto
448 3520 lineto
1552 3520 lineto
2157 3520 2454 3265 conicto
2752 3010 2752 2496 conicto
2752 2161 2595 1939 conicto
2439 1718 2140 1632 conicto
960 3136 moveto
960 1856 lineto
1552 1856 lineto
1893 1856 2066 2019 conicto
2240 2182 2240 2498 conicto
2240 2815 2066 2975 conicto
1893 3136 1552 3136 conicto
960 3136 lineto
end_ol grestore 
gsave 33.757092 16.321250 translate 0.035278 -0.035278 scale
start_ol
1622 1344 moveto
1104 1344 904 1225 conicto
704 1106 704 818 conicto
704 589 854 454 conicto
1004 320 1262 320 conicto
1618 320 1833 572 conicto
2048 825 2048 1244 conicto
2048 1344 lineto
1622 1344 lineto
2496 1513 moveto
2496 0 lineto
2048 0 lineto
2048 384 lineto
1900 154 1679 45 conicto
1458 -64 1138 -64 conicto
733 -64 494 162 conicto
256 389 256 769 conicto
256 1213 555 1438 conicto
854 1664 1448 1664 conicto
2048 1664 lineto
2048 1712 lineto
2048 2025 1851 2196 conicto
1655 2368 1300 2368 conicto
1074 2368 860 2320 conicto
646 2272 448 2176 conicto
448 2560 lineto
687 2656 912 2704 conicto
1138 2752 1351 2752 conicto
1927 2752 2211 2444 conicto
2496 2137 2496 1513 conicto
end_ol grestore 
gsave 34.149221 16.321250 translate 0.035278 -0.035278 scale
start_ol
192 2688 moveto
631 2688 lineto
1179 590 lineto
1725 2688 lineto
2243 2688 lineto
2791 590 lineto
3337 2688 lineto
3776 2688 lineto
3077 0 lineto
2560 0 lineto
1985 2203 lineto
1408 0 lineto
891 0 lineto
192 2688 lineto
end_ol grestore 
gsave 32.927500 17.121250 translate 0.035278 -0.035278 scale
start_ol
2624 3392 moveto
2624 2944 lineto
2352 3073 2111 3136 conicto
1870 3200 1645 3200 conicto
1255 3200 1043 3052 conicto
832 2904 832 2631 conicto
832 2402 969 2285 conicto
1107 2169 1491 2097 conicto
1773 2039 lineto
2308 1937 2562 1678 conicto
2816 1420 2816 986 conicto
2816 469 2468 202 conicto
2121 -64 1450 -64 conicto
1197 -64 911 0 conicto
626 65 320 192 conicto
320 704 lineto
613 513 893 416 conicto
1174 320 1445 320 conicto
1857 320 2080 485 conicto
2304 650 2304 955 conicto
2304 1221 2148 1371 conicto
1992 1522 1636 1597 conicto
1352 1652 lineto
807 1756 563 1978 conicto
320 2201 320 2597 conicto
320 3056 654 3320 conicto
989 3584 1576 3584 conicto
1828 3584 2089 3536 conicto
2351 3488 2624 3392 conicto
end_ol grestore 
gsave 33.334619 17.121250 translate 0.035278 -0.035278 scale
start_ol
1473 2368 moveto
1117 2368 910 2094 conicto
704 1820 704 1344 conicto
704 868 909 594 conicto
1115 320 1473 320 conicto
1827 320 2033 595 conicto
2240 870 2240 1344 conicto
2240 1816 2033 2092 conicto
1827 2368 1473 2368 conicto
1472 2752 moveto
2040 2752 2364 2378 conicto
2688 2005 2688 1344 conicto
2688 685 2364 310 conicto
2040 -64 1472 -64 conicto
902 -64 579 310 conicto
256 685 256 1344 conicto
256 2005 579 2378 conicto
902 2752 1472 2752 conicto
end_ol grestore 
gsave 33.726748 17.121250 translate 0.035278 -0.035278 scale
start_ol
2368 2560 moveto
2368 2176 lineto
2180 2272 1991 2320 conicto
1803 2368 1611 2368 conicto
1180 2368 942 2099 conicto
704 1830 704 1344 conicto
704 858 942 589 conicto
1180 320 1611 320 conicto
1803 320 1991 368 conicto
2180 416 2368 512 conicto
2368 128 lineto
2184 32 1987 -16 conicto
1791 -64 1569 -64 conicto
966 -64 611 316 conicto
256 697 256 1344 conicto
256 2000 615 2376 conicto
974 2752 1598 2752 conicto
1801 2752 1994 2704 conicto
2187 2656 2368 2560 conicto
end_ol grestore 
gsave 34.078917 17.121250 translate 0.035278 -0.035278 scale
start_ol
448 3712 moveto
896 3712 lineto
896 1529 lineto
2196 2688 lineto
2752 2688 lineto
1346 1430 lineto
2816 0 lineto
2246 0 lineto
896 1313 lineto
896 0 lineto
448 0 lineto
448 3712 lineto
end_ol grestore 
gsave 34.426092 17.121250 translate 0.035278 -0.035278 scale
start_ol
2752 1480 moveto
2752 1280 lineto
704 1280 lineto
733 811 978 565 conicto
1223 320 1660 320 conicto
1914 320 2152 384 conicto
2390 448 2624 576 conicto
2624 192 lineto
2388 67 2140 1 conicto
1893 -64 1639 -64 conicto
1001 -64 628 309 conicto
256 683 256 1320 conicto
256 1979 613 2365 conicto
970 2752 1576 2752 conicto
2120 2752 2436 2410 conicto
2752 2068 2752 1480 conicto
2304 1600 moveto
2299 1950 2099 2159 conicto
1900 2368 1572 2368 conicto
1200 2368 976 2166 conicto
753 1964 719 1597 conicto
2304 1600 lineto
end_ol grestore 
gsave 34.820718 17.121250 translate 0.035278 -0.035278 scale
start_ol
896 3456 moveto
896 2688 lineto
1792 2688 lineto
1792 2368 lineto
896 2368 lineto
896 902 lineto
896 572 984 478 conicto
1073 384 1345 384 conicto
1792 384 lineto
1792 0 lineto
1345 0 lineto
836 0 642 194 conicto
448 389 448 902 conicto
448 2368 lineto
128 2368 lineto
128 2688 lineto
448 2688 lineto
448 3456 lineto
896 3456 lineto
end_ol grestore 
0.100000 slw
[] 0 sd
[] 0 sd
0 slc
0 slj
0.100000 slw
0 slc
0 slj
[] 0 sd
1.000000 1.000000 1.000000 srgb
n 18.598596 25.312165 m 17.204227 25.298651 14.500000 25.582435 14.880282 26.190544 c 15.260561 26.798653 17.077466 26.933783 17.838031 26.758112 c 18.598596 26.582436 16.654930 27.609459 20.373248 27.879729 c 24.091532 28.150000 25.992944 27.717567 25.443647 27.406756 c 24.894350 27.095945 28.697175 28.136486 30.471827 27.541891 c 32.246478 26.947296 28.654921 26.379733 29.415486 26.460815 c 30.176051 26.541896 32.500000 26.433787 31.739435 25.420273 c 30.978870 24.406758 24.133785 25.190543 24.894350 25.041894 c 25.654915 24.893245 23.753503 24.150000 21.387334 24.298649 c 19.021132 24.447299 18.853301 24.717042 18.599779 25.311638 c 18.598596 25.312165 l ef
0.000000 0.000000 0.000000 srgb
n 18.598596 25.312165 m 17.204227 25.298651 14.500000 25.582435 14.880282 26.190544 c 15.260561 26.798653 17.077466 26.933783 17.838031 26.758112 c 18.598596 26.582436 16.654930 27.609459 20.373248 27.879729 c 24.091532 28.150000 25.992944 27.717567 25.443647 27.406756 c 24.894350 27.095945 28.697175 28.136486 30.471827 27.541891 c 32.246478 26.947296 28.654921 26.379733 29.415486 26.460815 c 30.176051 26.541896 32.500000 26.433787 31.739435 25.420273 c 30.978870 24.406758 24.133785 25.190543 24.894350 25.041894 c 25.654915 24.893245 23.753503 24.150000 21.387334 24.298649 c 19.021132 24.447299 18.853301 24.717042 18.599779 25.311638 c 18.598596 25.312165 l s
0.100000 slw
[] 0 sd
[] 0 sd
0 slj
0 slc
n 10.000000 21.000000 m 10.000000 26.100000 l 14.836000 26.100000 l 14.836000 26.090800 l s
0.100000 slw
[] 0 sd
[] 0 sd
0 slj
0 slc
n 34.000000 21.000000 m 34.000000 25.850000 l 31.882400 25.850000 l 31.882400 25.800300 l s
0.100000 slw
[] 0 sd
[] 0 sd
0 slc
n 22.000000 21.000000 m 21.988800 24.280400 l s
gsave 20.965000 26.571250 translate 0.035278 -0.035278 scale
start_ol
-64 3520 moveto
3008 3520 lineto
3008 3136 lineto
1728 3136 lineto
1728 0 lineto
1216 0 lineto
1216 3136 lineto
-64 3136 lineto
-64 3520 lineto
end_ol grestore 
gsave 21.247236 26.571250 translate 0.035278 -0.035278 scale
start_ol
2752 1480 moveto
2752 1280 lineto
704 1280 lineto
733 811 978 565 conicto
1223 320 1660 320 conicto
1914 320 2152 384 conicto
2390 448 2624 576 conicto
2624 192 lineto
2388 67 2140 1 conicto
1893 -64 1639 -64 conicto
1001 -64 628 309 conicto
256 683 256 1320 conicto
256 1979 613 2365 conicto
970 2752 1576 2752 conicto
2120 2752 2436 2410 conicto
2752 2068 2752 1480 conicto
2304 1600 moveto
2299 1950 2099 2159 conicto
1900 2368 1572 2368 conicto
1200 2368 976 2166 conicto
753 1964 719 1597 conicto
2304 1600 lineto
end_ol grestore 
gsave 21.641862 26.571250 translate 0.035278 -0.035278 scale
start_ol
2112 2560 moveto
2112 2176 lineto
1932 2272 1738 2320 conicto
1544 2368 1336 2368 conicto
1020 2368 862 2269 conicto
704 2170 704 1972 conicto
704 1821 814 1735 conicto
925 1649 1260 1571 conicto
1403 1538 lineto
1857 1438 2048 1255 conicto
2240 1072 2240 744 conicto
2240 371 1954 153 conicto
1668 -64 1167 -64 conicto
958 -64 732 -16 conicto
506 32 256 128 conicto
256 576 lineto
491 448 719 384 conicto
947 320 1170 320 conicto
1470 320 1631 425 conicto
1792 531 1792 722 conicto
1792 900 1678 994 conicto
1564 1089 1177 1177 conicto
1032 1212 lineto
621 1298 438 1476 conicto
256 1654 256 1964 conicto
256 2341 520 2546 conicto
784 2752 1269 2752 conicto
1509 2752 1721 2704 conicto
1933 2656 2112 2560 conicto
end_ol grestore 
gsave 21.974046 26.571250 translate 0.035278 -0.035278 scale
start_ol
896 3456 moveto
896 2688 lineto
1792 2688 lineto
1792 2368 lineto
896 2368 lineto
896 902 lineto
896 572 984 478 conicto
1073 384 1345 384 conicto
1792 384 lineto
1792 0 lineto
1345 0 lineto
836 0 642 194 conicto
448 389 448 902 conicto
448 2368 lineto
128 2368 lineto
128 2688 lineto
448 2688 lineto
448 3456 lineto
896 3456 lineto
end_ol grestore 
gsave 22.223813 26.571250 translate 0.035278 -0.035278 scale
start_ol
2368 1344 moveto
2368 1823 2171 2095 conicto
1975 2368 1632 2368 conicto
1289 2368 1092 2095 conicto
896 1823 896 1344 conicto
896 865 1092 592 conicto
1289 320 1632 320 conicto
1975 320 2171 592 conicto
2368 865 2368 1344 conicto
896 2304 moveto
1032 2531 1240 2641 conicto
1448 2752 1737 2752 conicto
2217 2752 2516 2364 conicto
2816 1976 2816 1344 conicto
2816 712 2516 324 conicto
2217 -64 1737 -64 conicto
1448 -64 1240 46 conicto
1032 157 896 384 conicto
896 0 lineto
448 0 lineto
448 3712 lineto
896 3712 lineto
896 2304 lineto
end_ol grestore 
gsave 22.630932 26.571250 translate 0.035278 -0.035278 scale
start_ol
2752 1480 moveto
2752 1280 lineto
704 1280 lineto
733 811 978 565 conicto
1223 320 1660 320 conicto
1914 320 2152 384 conicto
2390 448 2624 576 conicto
2624 192 lineto
2388 67 2140 1 conicto
1893 -64 1639 -64 conicto
1001 -64 628 309 conicto
256 683 256 1320 conicto
256 1979 613 2365 conicto
970 2752 1576 2752 conicto
2120 2752 2436 2410 conicto
2752 2068 2752 1480 conicto
2304 1600 moveto
2299 1950 2099 2159 conicto
1900 2368 1572 2368 conicto
1200 2368 976 2166 conicto
753 1964 719 1597 conicto
2304 1600 lineto
end_ol grestore 
gsave 23.025558 26.571250 translate 0.035278 -0.035278 scale
start_ol
2176 2304 moveto
2176 3712 lineto
2624 3712 lineto
2624 0 lineto
2176 0 lineto
2176 384 lineto
2040 157 1832 46 conicto
1624 -64 1332 -64 conicto
855 -64 555 324 conicto
256 712 256 1344 conicto
256 1976 555 2364 conicto
855 2752 1332 2752 conicto
1624 2752 1832 2641 conicto
2040 2531 2176 2304 conicto
704 1344 moveto
704 865 900 592 conicto
1096 320 1439 320 conicto
1782 320 1979 592 conicto
2176 865 2176 1344 conicto
2176 1823 1979 2095 conicto
1782 2368 1439 2368 conicto
1096 2368 900 2095 conicto
704 1823 704 1344 conicto
end_ol grestore 
0.100000 slw
[] 0 sd
[] 0 sd
1 slj
0.901961 0.901961 0.980392 srgb
n 8.000000 18.000000 m 8.000000 21.000000 l 12.000000 21.000000 l 12.000000 18.000000 l f
0.000000 0.000000 0.000000 srgb
n 8.000000 18.000000 m 8.000000 21.000000 l 12.000000 21.000000 l 12.000000 18.000000 l cp s
gsave 9.308750 19.321250 translate 0.035278 -0.035278 scale
start_ol
2140 1632 moveto
2295 1581 2442 1413 conicto
2590 1245 2738 952 conicto
3200 0 lineto
2709 0 lineto
2250 893 lineto
2077 1243 1915 1357 conicto
1753 1472 1473 1472 conicto
960 1472 lineto
960 0 lineto
448 0 lineto
448 3520 lineto
1552 3520 lineto
2157 3520 2454 3265 conicto
2752 3010 2752 2496 conicto
2752 2161 2595 1939 conicto
2439 1718 2140 1632 conicto
960 3136 moveto
960 1856 lineto
1552 1856 lineto
1893 1856 2066 2019 conicto
2240 2182 2240 2498 conicto
2240 2815 2066 2975 conicto
1893 3136 1552 3136 conicto
960 3136 lineto
end_ol grestore 
gsave 9.725857 19.321250 translate 0.035278 -0.035278 scale
start_ol
2752 1480 moveto
2752 1280 lineto
704 1280 lineto
733 811 978 565 conicto
1223 320 1660 320 conicto
1914 320 2152 384 conicto
2390 448 2624 576 conicto
2624 192 lineto
2388 67 2140 1 conicto
1893 -64 1639 -64 conicto
1001 -64 628 309 conicto
256 683 256 1320 conicto
256 1979 613 2365 conicto
970 2752 1576 2752 conicto
2120 2752 2436 2410 conicto
2752 2068 2752 1480 conicto
2304 1600 moveto
2299 1950 2099 2159 conicto
1900 2368 1572 2368 conicto
1200 2368 976 2166 conicto
753 1964 719 1597 conicto
2304 1600 lineto
end_ol grestore 
gsave 10.120483 19.321250 translate 0.035278 -0.035278 scale
start_ol
1622 1344 moveto
1104 1344 904 1225 conicto
704 1106 704 818 conicto
704 589 854 454 conicto
1004 320 1262 320 conicto
1618 320 1833 572 conicto
2048 825 2048 1244 conicto
2048 1344 lineto
1622 1344 lineto
2496 1513 moveto
2496 0 lineto
2048 0 lineto
2048 384 lineto
1900 154 1679 45 conicto
1458 -64 1138 -64 conicto
733 -64 494 162 conicto
256 389 256 769 conicto
256 1213 555 1438 conicto
854 1664 1448 1664 conicto
2048 1664 lineto
2048 1712 lineto
2048 2025 1851 2196 conicto
1655 2368 1300 2368 conicto
1074 2368 860 2320 conicto
646 2272 448 2176 conicto
448 2560 lineto
687 2656 912 2704 conicto
1138 2752 1351 2752 conicto
1927 2752 2211 2444 conicto
2496 2137 2496 1513 conicto
end_ol grestore 
gsave 10.512612 19.321250 translate 0.035278 -0.035278 scale
start_ol
448 3712 moveto
896 3712 lineto
896 0 lineto
448 0 lineto
448 3712 lineto
end_ol grestore 
gsave 8.903750 20.121250 translate 0.035278 -0.035278 scale
start_ol
960 3136 moveto
960 384 lineto
1536 384 lineto
2266 384 2605 716 conicto
2944 1048 2944 1764 conicto
2944 2475 2605 2805 conicto
2266 3136 1536 3136 conicto
960 3136 lineto
448 3520 moveto
1463 3520 lineto
2493 3520 2974 3094 conicto
3456 2669 3456 1764 conicto
3456 853 2972 426 conicto
2488 0 1463 0 conicto
448 0 lineto
448 3520 lineto
end_ol grestore 
gsave 9.395784 20.121250 translate 0.035278 -0.035278 scale
start_ol
2752 1480 moveto
2752 1280 lineto
704 1280 lineto
733 811 978 565 conicto
1223 320 1660 320 conicto
1914 320 2152 384 conicto
2390 448 2624 576 conicto
2624 192 lineto
2388 67 2140 1 conicto
1893 -64 1639 -64 conicto
1001 -64 628 309 conicto
256 683 256 1320 conicto
256 1979 613 2365 conicto
970 2752 1576 2752 conicto
2120 2752 2436 2410 conicto
2752 2068 2752 1480 conicto
2304 1600 moveto
2299 1950 2099 2159 conicto
1900 2368 1572 2368 conicto
1200 2368 976 2166 conicto
753 1964 719 1597 conicto
2304 1600 lineto
end_ol grestore 
gsave 9.790410 20.121250 translate 0.035278 -0.035278 scale
start_ol
128 2688 moveto
586 2688 lineto
1408 432 lineto
2230 2688 lineto
2688 2688 lineto
1702 0 lineto
1114 0 lineto
128 2688 lineto
end_ol grestore 
gsave 10.170054 20.121250 translate 0.035278 -0.035278 scale
start_ol
448 2688 moveto
896 2688 lineto
896 0 lineto
448 0 lineto
448 2688 lineto
448 3712 moveto
896 3712 lineto
896 3136 lineto
448 3136 lineto
448 3712 lineto
end_ol grestore 
gsave 10.347383 20.121250 translate 0.035278 -0.035278 scale
start_ol
2368 2560 moveto
2368 2176 lineto
2180 2272 1991 2320 conicto
1803 2368 1611 2368 conicto
1180 2368 942 2099 conicto
704 1830 704 1344 conicto
704 858 942 589 conicto
1180 320 1611 320 conicto
1803 320 1991 368 conicto
2180 416 2368 512 conicto
2368 128 lineto
2184 32 1987 -16 conicto
1791 -64 1569 -64 conicto
966 -64 611 316 conicto
256 697 256 1344 conicto
256 2000 615 2376 conicto
974 2752 1598 2752 conicto
1801 2752 1994 2704 conicto
2187 2656 2368 2560 conicto
end_ol grestore 
gsave 10.699551 20.121250 translate 0.035278 -0.035278 scale
start_ol
2752 1480 moveto
2752 1280 lineto
704 1280 lineto
733 811 978 565 conicto
1223 320 1660 320 conicto
1914 320 2152 384 conicto
2390 448 2624 576 conicto
2624 192 lineto
2388 67 2140 1 conicto
1893 -64 1639 -64 conicto
1001 -64 628 309 conicto
256 683 256 1320 conicto
256 1979 613 2365 conicto
970 2752 1576 2752 conicto
2120 2752 2436 2410 conicto
2752 2068 2752 1480 conicto
2304 1600 moveto
2299 1950 2099 2159 conicto
1900 2368 1572 2368 conicto
1200 2368 976 2166 conicto
753 1964 719 1597 conicto
2304 1600 lineto
end_ol grestore 
0.100000 slw
[] 0 sd
[] 0 sd
1 slj
0.901961 0.901961 0.980392 srgb
n 20.000000 18.000000 m 20.000000 21.000000 l 24.000000 21.000000 l 24.000000 18.000000 l f
0.000000 0.000000 0.000000 srgb
n 20.000000 18.000000 m 20.000000 21.000000 l 24.000000 21.000000 l 24.000000 18.000000 l cp s
gsave 21.308750 19.321250 translate 0.035278 -0.035278 scale
start_ol
2140 1632 moveto
2295 1581 2442 1413 conicto
2590 1245 2738 952 conicto
3200 0 lineto
2709 0 lineto
2250 893 lineto
2077 1243 1915 1357 conicto
1753 1472 1473 1472 conicto
960 1472 lineto
960 0 lineto
448 0 lineto
448 3520 lineto
1552 3520 lineto
2157 3520 2454 3265 conicto
2752 3010 2752 2496 conicto
2752 2161 2595 1939 conicto
2439 1718 2140 1632 conicto
960 3136 moveto
960 1856 lineto
1552 1856 lineto
1893 1856 2066 2019 conicto
2240 2182 2240 2498 conicto
2240 2815 2066 2975 conicto
1893 3136 1552 3136 conicto
960 3136 lineto
end_ol grestore 
gsave 21.725857 19.321250 translate 0.035278 -0.035278 scale
start_ol
2752 1480 moveto
2752 1280 lineto
704 1280 lineto
733 811 978 565 conicto
1223 320 1660 320 conicto
1914 320 2152 384 conicto
2390 448 2624 576 conicto
2624 192 lineto
2388 67 2140 1 conicto
1893 -64 1639 -64 conicto
1001 -64 628 309 conicto
256 683 256 1320 conicto
256 1979 613 2365 conicto
970 2752 1576 2752 conicto
2120 2752 2436 2410 conicto
2752 2068 2752 1480 conicto
2304 1600 moveto
2299 1950 2099 2159 conicto
1900 2368 1572 2368 conicto
1200 2368 976 2166 conicto
753 1964 719 1597 conicto
2304 1600 lineto
end_ol grestore 
gsave 22.120483 19.321250 translate 0.035278 -0.035278 scale
start_ol
1622 1344 moveto
1104 1344 904 1225 conicto
704 1106 704 818 conicto
704 589 854 454 conicto
1004 320 1262 320 conicto
1618 320 1833 572 conicto
2048 825 2048 1244 conicto
2048 1344 lineto
1622 1344 lineto
2496 1513 moveto
2496 0 lineto
2048 0 lineto
2048 384 lineto
1900 154 1679 45 conicto
1458 -64 1138 -64 conicto
733 -64 494 162 conicto
256 389 256 769 conicto
256 1213 555 1438 conicto
854 1664 1448 1664 conicto
2048 1664 lineto
2048 1712 lineto
2048 2025 1851 2196 conicto
1655 2368 1300 2368 conicto
1074 2368 860 2320 conicto
646 2272 448 2176 conicto
448 2560 lineto
687 2656 912 2704 conicto
1138 2752 1351 2752 conicto
1927 2752 2211 2444 conicto
2496 2137 2496 1513 conicto
end_ol grestore 
gsave 22.512612 19.321250 translate 0.035278 -0.035278 scale
start_ol
448 3712 moveto
896 3712 lineto
896 0 lineto
448 0 lineto
448 3712 lineto
end_ol grestore 
gsave 20.903750 20.121250 translate 0.035278 -0.035278 scale
start_ol
960 3136 moveto
960 384 lineto
1536 384 lineto
2266 384 2605 716 conicto
2944 1048 2944 1764 conicto
2944 2475 2605 2805 conicto
2266 3136 1536 3136 conicto
960 3136 lineto
448 3520 moveto
1463 3520 lineto
2493 3520 2974 3094 conicto
3456 2669 3456 1764 conicto
3456 853 2972 426 conicto
2488 0 1463 0 conicto
448 0 lineto
448 3520 lineto
end_ol grestore 
gsave 21.395784 20.121250 translate 0.035278 -0.035278 scale
start_ol
2752 1480 moveto
2752 1280 lineto
704 1280 lineto
733 811 978 565 conicto
1223 320 1660 320 conicto
1914 320 2152 384 conicto
2390 448 2624 576 conicto
2624 192 lineto
2388 67 2140 1 conicto
1893 -64 1639 -64 conicto
1001 -64 628 309 conicto
256 683 256 1320 conicto
256 1979 613 2365 conicto
970 2752 1576 2752 conicto
2120 2752 2436 2410 conicto
2752 2068 2752 1480 conicto
2304 1600 moveto
2299 1950 2099 2159 conicto
1900 2368 1572 2368 conicto
1200 2368 976 2166 conicto
753 1964 719 1597 conicto
2304 1600 lineto
end_ol grestore 
gsave 21.790410 20.121250 translate 0.035278 -0.035278 scale
start_ol
128 2688 moveto
586 2688 lineto
1408 432 lineto
2230 2688 lineto
2688 2688 lineto
1702 0 lineto
1114 0 lineto
128 2688 lineto
end_ol grestore 
gsave 22.170054 20.121250 translate 0.035278 -0.035278 scale
start_ol
448 2688 moveto
896 2688 lineto
896 0 lineto
448 0 lineto
448 2688 lineto
448 3712 moveto
896 3712 lineto
896 3136 lineto
448 3136 lineto
448 3712 lineto
end_ol grestore 
gsave 22.347383 20.121250 translate 0.035278 -0.035278 scale
start_ol
2368 2560 moveto
2368 2176 lineto
2180 2272 1991 2320 conicto
1803 2368 1611 2368 conicto
1180 2368 942 2099 conicto
704 1830 704 1344 conicto
704 858 942 589 conicto
1180 320 1611 320 conicto
1803 320 1991 368 conicto
2180 416 2368 512 conicto
2368 128 lineto
2184 32 1987 -16 conicto
1791 -64 1569 -64 conicto
966 -64 611 316 conicto
256 697 256 1344 conicto
256 2000 615 2376 conicto
974 2752 1598 2752 conicto
1801 2752 1994 2704 conicto
2187 2656 2368 2560 conicto
end_ol grestore 
gsave 22.699551 20.121250 translate 0.035278 -0.035278 scale
start_ol
2752 1480 moveto
2752 1280 lineto
704 1280 lineto
733 811 978 565 conicto
1223 320 1660 320 conicto
1914 320 2152 384 conicto
2390 448 2624 576 conicto
2624 192 lineto
2388 67 2140 1 conicto
1893 -64 1639 -64 conicto
1001 -64 628 309 conicto
256 683 256 1320 conicto
256 1979 613 2365 conicto
970 2752 1576 2752 conicto
2120 2752 2436 2410 conicto
2752 2068 2752 1480 conicto
2304 1600 moveto
2299 1950 2099 2159 conicto
1900 2368 1572 2368 conicto
1200 2368 976 2166 conicto
753 1964 719 1597 conicto
2304 1600 lineto
end_ol grestore 
0.100000 slw
[] 0 sd
[] 0 sd
1 slj
0.901961 0.901961 0.980392 srgb
n 32.000000 18.000000 m 32.000000 21.000000 l 36.000000 21.000000 l 36.000000 18.000000 l f
0.000000 0.000000 0.000000 srgb
n 32.000000 18.000000 m 32.000000 21.000000 l 36.000000 21.000000 l 36.000000 18.000000 l cp s
gsave 33.308750 19.321250 translate 0.035278 -0.035278 scale
start_ol
2140 1632 moveto
2295 1581 2442 1413 conicto
2590 1245 2738 952 conicto
3200 0 lineto
2709 0 lineto
2250 893 lineto
2077 1243 1915 1357 conicto
1753 1472 1473 1472 conicto
960 1472 lineto
960 0 lineto
448 0 lineto
448 3520 lineto
1552 3520 lineto
2157 3520 2454 3265 conicto
2752 3010 2752 2496 conicto
2752 2161 2595 1939 conicto
2439 1718 2140 1632 conicto
960 3136 moveto
960 1856 lineto
1552 1856 lineto
1893 1856 2066 2019 conicto
2240 2182 2240 2498 conicto
2240 2815 2066 2975 conicto
1893 3136 1552 3136 conicto
960 3136 lineto
end_ol grestore 
gsave 33.725857 19.321250 translate 0.035278 -0.035278 scale
start_ol
2752 1480 moveto
2752 1280 lineto
704 1280 lineto
733 811 978 565 conicto
1223 320 1660 320 conicto
1914 320 2152 384 conicto
2390 448 2624 576 conicto
2624 192 lineto
2388 67 2140 1 conicto
1893 -64 1639 -64 conicto
1001 -64 628 309 conicto
256 683 256 1320 conicto
256 1979 613 2365 conicto
970 2752 1576 2752 conicto
2120 2752 2436 2410 conicto
2752 2068 2752 1480 conicto
2304 1600 moveto
2299 1950 2099 2159 conicto
1900 2368 1572 2368 conicto
1200 2368 976 2166 conicto
753 1964 719 1597 conicto
2304 1600 lineto
end_ol grestore 
gsave 34.120483 19.321250 translate 0.035278 -0.035278 scale
start_ol
1622 1344 moveto
1104 1344 904 1225 conicto
704 1106 704 818 conicto
704 589 854 454 conicto
1004 320 1262 320 conicto
1618 320 1833 572 conicto
2048 825 2048 1244 conicto
2048 1344 lineto
1622 1344 lineto
2496 1513 moveto
2496 0 lineto
2048 0 lineto
2048 384 lineto
1900 154 1679 45 conicto
1458 -64 1138 -64 conicto
733 -64 494 162 conicto
256 389 256 769 conicto
256 1213 555 1438 conicto
854 1664 1448 1664 conicto
2048 1664 lineto
2048 1712 lineto
2048 2025 1851 2196 conicto
1655 2368 1300 2368 conicto
1074 2368 860 2320 conicto
646 2272 448 2176 conicto
448 2560 lineto
687 2656 912 2704 conicto
1138 2752 1351 2752 conicto
1927 2752 2211 2444 conicto
2496 2137 2496 1513 conicto
end_ol grestore 
gsave 34.512612 19.321250 translate 0.035278 -0.035278 scale
start_ol
448 3712 moveto
896 3712 lineto
896 0 lineto
448 0 lineto
448 3712 lineto
end_ol grestore 
gsave 32.903750 20.121250 translate 0.035278 -0.035278 scale
start_ol
960 3136 moveto
960 384 lineto
1536 384 lineto
2266 384 2605 716 conicto
2944 1048 2944 1764 conicto
2944 2475 2605 2805 conicto
2266 3136 1536 3136 conicto
960 3136 lineto
448 3520 moveto
1463 3520 lineto
2493 3520 2974 3094 conicto
3456 2669 3456 1764 conicto
3456 853 2972 426 conicto
2488 0 1463 0 conicto
448 0 lineto
448 3520 lineto
end_ol grestore 
gsave 33.395784 20.121250 translate 0.035278 -0.035278 scale
start_ol
2752 1480 moveto
2752 1280 lineto
704 1280 lineto
733 811 978 565 conicto
1223 320 1660 320 conicto
1914 320 2152 384 conicto
2390 448 2624 576 conicto
2624 192 lineto
2388 67 2140 1 conicto
1893 -64 1639 -64 conicto
1001 -64 628 309 conicto
256 683 256 1320 conicto
256 1979 613 2365 conicto
970 2752 1576 2752 conicto
2120 2752 2436 2410 conicto
2752 2068 2752 1480 conicto
2304 1600 moveto
2299 1950 2099 2159 conicto
1900 2368 1572 2368 conicto
1200 2368 976 2166 conicto
753 1964 719 1597 conicto
2304 1600 lineto
end_ol grestore 
gsave 33.790410 20.121250 translate 0.035278 -0.035278 scale
start_ol
128 2688 moveto
586 2688 lineto
1408 432 lineto
2230 2688 lineto
2688 2688 lineto
1702 0 lineto
1114 0 lineto
128 2688 lineto
end_ol grestore 
gsave 34.170054 20.121250 translate 0.035278 -0.035278 scale
start_ol
448 2688 moveto
896 2688 lineto
896 0 lineto
448 0 lineto
448 2688 lineto
448 3712 moveto
896 3712 lineto
896 3136 lineto
448 3136 lineto
448 3712 lineto
end_ol grestore 
gsave 34.347383 20.121250 translate 0.035278 -0.035278 scale
start_ol
2368 2560 moveto
2368 2176 lineto
2180 2272 1991 2320 conicto
1803 2368 1611 2368 conicto
1180 2368 942 2099 conicto
704 1830 704 1344 conicto
704 858 942 589 conicto
1180 320 1611 320 conicto
1803 320 1991 368 conicto
2180 416 2368 512 conicto
2368 128 lineto
2184 32 1987 -16 conicto
1791 -64 1569 -64 conicto
966 -64 611 316 conicto
256 697 256 1344 conicto
256 2000 615 2376 conicto
974 2752 1598 2752 conicto
1801 2752 1994 2704 conicto
2187 2656 2368 2560 conicto
end_ol grestore 
gsave 34.699551 20.121250 translate 0.035278 -0.035278 scale
start_ol
2752 1480 moveto
2752 1280 lineto
704 1280 lineto
733 811 978 565 conicto
1223 320 1660 320 conicto
1914 320 2152 384 conicto
2390 448 2624 576 conicto
2624 192 lineto
2388 67 2140 1 conicto
1893 -64 1639 -64 conicto
1001 -64 628 309 conicto
256 683 256 1320 conicto
256 1979 613 2365 conicto
970 2752 1576 2752 conicto
2120 2752 2436 2410 conicto
2752 2068 2752 1480 conicto
2304 1600 moveto
2299 1950 2099 2159 conicto
1900 2368 1572 2368 conicto
1200 2368 976 2166 conicto
753 1964 719 1597 conicto
2304 1600 lineto
end_ol grestore 
showpage
